08-two-parameters.utf8
…
1.2 Estimate Income

Recall how we constructed bootstrap distributions for select parameters through sampling with replacement in ch7. Through this bootstrapping process, we were able to construct confidence intervals for these parameters. Remember, confidence intervals are a tool to help us identify parameter uncertainty, which is the degree to which we are confident in these approximations of the true values using limited data.

Using the limited data in the trains dataset as representative of homogeneous white populations of the United States, this type of resampling will allow us to pinpoint a true value for a given parameter with a certain degree of confidence — this could, for example, be the true average income of Boston commuters, or the true percentage of Boston commuters that are Republican (refer back to chapter 7 for a refresher on how this works out mathematically).

We will once again be using the bootstraps() function from the rsample package. You might think that since we’re shifting to calculating two parameters of comparison, we might need to conduct the entire bootstrapping process twice, once for each parameter. However, it’s much, much easier than that! We can actually calculate as many parameters as we need to for each replicate instead of doing a separate bootstrap for each parameter we want to track.

That was a lot of words; the idea is best illustrated for an example. Here is a bootstrap sample of the trains dataset with 1000 replicates, and the data contained in the first of these 1000 replicates (note that we need the analysis() function in order to view the data stored within each replicate because of the split data column):

x <- bootstraps(trains, 1000)

x$splits[[1]] %>% analysis()

## # A tibble: 115 x 8
##    gender liberal party      age income att_start treatment att_end
##    <chr>  <lgl>   <chr>    <dbl>  <dbl>     <dbl> <fct>       <dbl>
##  1 Male   TRUE    Democrat    50  87500         7 Treated         7
##  2 Female TRUE    Democrat    29 250000         9 Control         8
##  3 Female TRUE    Democrat    43 135000         7 Control         8
##  4 Female TRUE    Democrat    41  62500        12 Treated        12
##  5 Female TRUE    Democrat    29 250000         9 Control         8
##  6 Female FALSE   Democrat    50  62500        13 Control        13
##  7 Male   FALSE   Democrat    44 300000         8 Control         9
##  8 Male   TRUE    Democrat    36 135000         4 Control         4
##  9 Male   TRUE    Democrat    57 105000         3 Control         3
## 10 Female TRUE    Democrat    60  87500        10 Control         9
## # … with 105 more rows

Now, let’s say we’re interested in calculating a single parameter across each of these bootstrapped samples: the mean income for each of these replicates. We can achieve this by applying the mean() function iteratively across each of the replicates using a mapping function, and adding a column to the condensed “data” tibble, as shown below:

get_mean_income <- function(splits) {
  x <- analysis(splits)
  return(mean(x$income))
}

x$mean_income <- map_dbl(1:1000, ~get_mean_income(x$splits[[.]]))

x

## # Bootstrap sampling 
## # A tibble: 1,000 x 3
##    splits           id            mean_income
##    <list>           <chr>               <dbl>
##  1 <split [115/39]> Bootstrap0001     146617.
##  2 <split [115/41]> Bootstrap0002     142804.
##  3 <split [115/37]> Bootstrap0003     141261.
##  4 <split [115/39]> Bootstrap0004     145065.
##  5 <split [115/42]> Bootstrap0005     137183.
##  6 <split [115/45]> Bootstrap0006     150087.
##  7 <split [115/45]> Bootstrap0007     136800 
##  8 <split [115/45]> Bootstrap0008     140087.
##  9 <split [115/38]> Bootstrap0009     128813.
## 10 <split [115/41]> Bootstrap0010     152583.
## # … with 990 more rows
…
get_mean_income <- function(splits, whichParty) {
  x <- analysis(splits) %>% filter(party == whichParty)
  return(mean(x$income))
}

Now that we’ve rewritten get_mean_income(), we can map the function onto each replicate. Here, we create two columns, mean_income_control and mean_income_treated, that distinguish between the mean incomes of the two groups.

x$mean_income_democrat <- map_dbl(1:1000, ~get_mean_income(x$splits[[.]], "Democrat"))

x$mean_income_republican <- map_dbl(1:1000, ~get_mean_income(x$splits[[.]], "Republican"))

x %>% select(id, mean_income_democrat, mean_income_republican)

## # A tibble: 1,000 x 3
##    id            mean_income_democrat mean_income_republican
##    <chr>                        <dbl>                  <dbl>
##  1 Bootstrap0001              137432.                190250 
##  2 Bootstrap0002              132306.                180600 
##  3 Bootstrap0003              137447.                158333.
##  4 Bootstrap0004              138900                 186167.
##  5 Bootstrap0005              129863.                194615.
##  6 Bootstrap0006              147335.                160521.
##  7 Bootstrap0007              134745                 150500 
##  8 Bootstrap0008              139879.                141875 
##  9 Bootstrap0009              127283.                138281.
## 10 Bootstrap0010              147939.                169300 
## # … with 990 more rows

If we wanted to construct separate distributions for mean_income_democrat and mean_income_republican, we would need to be able to distinguish the two columns by a single variable. To do this, we use pivot_longer() and combine the two columns under a new column called subject_party:

pivoted_data <- x %>% 
  pivot_longer(cols = c(mean_income_democrat, mean_income_republican), 
               names_to = "subject_party",
               values_to = "income")

pivoted_data

## # A tibble: 2,000 x 5
##    splits           id            mean_income subject_party           income
##    <list>           <chr>               <dbl> <chr>                    <dbl>
##  1 <split [115/39]> Bootstrap0001     146617. mean_income_democrat   137432.
##  2 <split [115/39]> Bootstrap0001     146617. mean_income_republican 190250 
##  3 <split [115/41]> Bootstrap0002     142804. mean_income_democrat   132306.
##  4 <split [115/41]> Bootstrap0002     142804. mean_income_republican 180600 
##  5 <split [115/37]> Bootstrap0003     141261. mean_income_democrat   137447.
##  6 <split [115/37]> Bootstrap0003     141261. mean_income_republican 158333.
##  7 <split [115/39]> Bootstrap0004     145065. mean_income_democrat   138900 
##  8 <split [115/39]> Bootstrap0004     145065. mean_income_republican 186167.
##  9 <split [115/42]> Bootstrap0005     137183. mean_income_democrat   129863.
## 10 <split [115/42]> Bootstrap0005     137183. mean_income_republican 194615.
## # … with 1,990 more rows
…
