08-two-parameters.utf8
…
#Median income for republicans:

median_income_value_republican <- median(trains %>% filter(party == "Republican") %>% pull(income))

Recall how we constructed bootstrap distributions through sampling with replacement to calculate parameter values with confidence intervals in ch7. Using the data in the trains dataset as representative of homogeneous white populations of the United States, this type of resampling will allow us to pinpoint a value for a given parameter with a certain degree of confidence (refer back to chapter 7 for a refresher on how this works out mathematically).

We will replicate the process in this chapter, using the bootstraps() function from the rsample package. You might think that since were shifting to calculating two parameters of comparison, we might need to conduct the entire bootstrapping process twice, once for each parameter. However, its much, much easier than that! We can actually calculate as many parameters as we need to for each replicate instead of doing a separate bootstrap for each parameter we want to track.

That was a lot of words; the idea is best illustrated for an example. Here is a bootstrap sample of 100 replicates, and the data contained in the first of these 100 replicates (note that we need the analysis() function in order to view the data stored within each replicate because of the split data column):

x <- bootstraps(trains, 1000)

x$splits[[1]] %>% analysis()

## # A tibble: 115 x 8
##    gender liberal party        age income att_start treatment att_end
##    <chr>  <lgl>   <chr>      <dbl>  <dbl>     <dbl> <fct>       <dbl>
##  1 Female TRUE    Democrat      38  87500         4 Control         4
##  2 Female FALSE   Republican    34 105000         9 Treated        10
##  3 Male   TRUE    Democrat      57 105000         3 Control         3
##  4 Male   FALSE   Democrat      36 135000        10 Treated        11
##  5 Female TRUE    Democrat      33 105000        10 Control        10
##  6 Male   TRUE    Democrat      52  23500         7 Control         7
##  7 Male   TRUE    Democrat      40  62500         6 Control         7
##  8 Male   FALSE   Democrat      38  87500         9 Control         9
##  9 Female TRUE    Democrat      50 135000         7 Treated         7
## 10 Male   TRUE    Democrat      60 105000         5 Control         6
## #  with 105 more rows

Now, lets say were interested in calculating a single parameter across each of these bootstrapped samples: the mean income for each of these replicates. We can achieve this by applying the mean() function iteratively across each of the replicates using a mapping function, and adding a column to the condensed data tibble, as shown below:

get_mean_income <- function(splits) {
  x <- analysis(splits)
  return(mean(x$income))
}

x$mean_income <- map_dbl(1:1000, ~get_mean_income(x$splits[[.]]))

x

## # Bootstrap sampling 
## # A tibble: 1,000 x 3
##    splits           id            mean_income
##    <list>           <chr>               <dbl>
##  1 <split [115/40]> Bootstrap0001     135039.
##  2 <split [115/50]> Bootstrap0002     133561.
##  3 <split [115/42]> Bootstrap0003     146235.
##  4 <split [115/43]> Bootstrap0004     146561.
##  5 <split [115/43]> Bootstrap0005     135609.
##  6 <split [115/42]> Bootstrap0006     136574.
##  7 <split [115/42]> Bootstrap0007     143552.
##  8 <split [115/38]> Bootstrap0008     149030.
##  9 <split [115/48]> Bootstrap0009     141135.
## 10 <split [115/36]> Bootstrap0010     148070.
## #  with 990 more rows
…
get_mean_income <- function(splits, whichParty) {
  x <- analysis(splits) %>% filter(party == whichParty)
  return(mean(x$income))
}

Now that weve written get_mean_income(), we can map the function onto each replicate. Here, we create two columns, mean_income_control and mean_income_treated, that distinguish between the mean incomes of the two groups.

x$mean_income_democrat <- map_dbl(1:1000, ~get_mean_income(x$splits[[.]], "Democrat"))

x$mean_income_republican <- map_dbl(1:1000, ~get_mean_income(x$splits[[.]], "Republican"))

x %>% select(id, mean_income_democrat, mean_income_republican)

## # A tibble: 1,000 x 3
##    id            mean_income_democrat mean_income_republican
##    <chr>                        <dbl>                  <dbl>
##  1 Bootstrap0001              131077.                156389.
##  2 Bootstrap0002              125811.                170375 
##  3 Bootstrap0003              141689.                162600 
##  4 Bootstrap0004              142217.                162200 
##  5 Bootstrap0005              129827.                177321.
##  6 Bootstrap0006              131235.                167353.
##  7 Bootstrap0007              136424.                172065.
##  8 Bootstrap0008              144285.                169091.
##  9 Bootstrap0009              136510.                167794.
## 10 Bootstrap0010              147290.                151364.
## #  with 990 more rows
…
  filter(x, party == "Republican") %>% 
    summarize(mean_income = mean(income)) %>% 
    pull(mean_income) - 
    filter(x , party == "Democrat") %>% 
    summarize(mean_income = mean(income)) %>% 
    pull(mean_income)
  
}

x$manual_mean_income_difference <- map_dbl(1:1000, ~get_manual_mean_income_difference(x$splits[[.]]))

x %>% select(id, mean_income_democrat, mean_income_republican, manual_mean_income_difference)

## # A tibble: 1,000 x 4
##    id          mean_income_democr mean_income_republi manual_mean_income_diff
##    <chr>                     <dbl>                <dbl>                    <dbl>
##  1 Bootstrap0             131077.              156389.                   25312.
##  2 Bootstrap0             125811.              170375                    44564.
##  3 Bootstrap0             141689.              162600                    20911.
##  4 Bootstrap0             142217.              162200                    19983.
##  5 Bootstrap0             129827.              177321.                   47495.
##  6 Bootstrap0             131235.              167353.                   36118.
##  7 Bootstrap0             136424.              172065.                   35641.
##  8 Bootstrap0             144285.              169091.                   24806.
##  9 Bootstrap0             136510.              167794.                   31284.
## 10 Bootstrap0             147290.              151364.                    4073.
## #  with 990 more rows
…
