Chapter 10 can delete the data directory. | Preceptor’s Primer for Bayesian Data Science
…
These 35 \(\cdot\) 50 = 1750 values are saved in pennies_resamples, a “tidy” data frame included in the moderndive package. We saw what it means for a data frame to be “tidy” in Subsection 2.7.1.

pennies_resamples

## # A tibble: 1,750 x 3
## # Groups:   name [35]
##    replicate name     year
##        <int> <chr>   <dbl>
##  1         1 Arianna  1988
##  2         1 Arianna  2002
##  3         1 Arianna  2015
##  4         1 Arianna  1998
##  5         1 Arianna  1979
##  6         1 Arianna  1971
##  7         1 Arianna  1971
##  8         1 Arianna  2015
##  9         1 Arianna  1988
## 10         1 Arianna  1979
## # … with 1,740 more rows

What did each of our 35 friends obtain as the mean year? Once again, dplyr to the rescue! After grouping the rows by name, we summarize each group of 50 rows by their mean year:

resampled_means <- pennies_resamples %>% 
  group_by(name) %>% 
  summarize(mean_year = mean(year))

## `summarise()` ungrouping output (override with `.groups` argument)

resampled_means

## # A tibble: 35 x 2
##    name      mean_year
##    <chr>         <dbl>
##  1 Arianna       1992.
##  2 Artemis       1996.
##  3 Bea           1996.
##  4 Camryn        1997.
##  5 Cassandra     1991.
##  6 Cindy         1995.
##  7 Claire        1996.
##  8 Dahlia        1998.
##  9 Dan           1994.
## 10 Eindra        1994.
## # … with 25 more rows
…
virtual_shovel <- urn %>% 
  rep_sample_n(size = 50)

Let’s modify this code to perform the resampling with replacement of the 50 slips of paper representing our original sample of 50 pennies:

virtual_resample <- pennies_sample %>% 
  rep_sample_n(size = 50, replace = TRUE)

Observe how we explicitly set the replace argument to TRUE in order to tell rep_sample_n() that we would like to sample pennies  with replacement. Had we not set replace = TRUE, the function would’ve assumed the default value of FALSE and hence done resampling without replacement. Additionally, since we didn’t specify the number of replicates via the reps argument, the function assumes the default of one replicate reps = 1. Lastly, observe also that the size argument is set to match the original sample size of 50 pennies.

Let’s look at only the first 10 out of 50 rows of virtual_resample:

virtual_resample

## # A tibble: 50 x 3
## # Groups:   replicate [1]
##    replicate    ID  year
##        <int> <int> <dbl>
##  1         1    39  2015
##  2         1    37  1962
##  3         1    13  2015
##  4         1    36  2015
##  5         1     4  1988
##  6         1     1  2002
##  7         1    12  1995
##  8         1    27  1993
##  9         1     5  2008
## 10         1    10  2000
## # … with 40 more rows
…
As we saw when we did our tactile resampling exercise, the resulting mean year is different than the mean year of our 50 originally sampled pennies of 1995.44.

10.0.5 Virtually resampling 35 times

Let’s now perform the virtual analog of our 35 friends’ resampling. Using these results, we’ll be able to study the variability in the sample means from 35 resamples of size 50. Let’s first add a reps = 35 argument to rep_sample_n()  to indicate we would like 35 replicates. Thus, we want to repeat the resampling with the replacement of 50 pennies 35 times.

virtual_resamples <- pennies_sample %>% 
  rep_sample_n(size = 50, replace = TRUE, reps = 35)
virtual_resamples

## # A tibble: 1,750 x 3
## # Groups:   replicate [35]
##    replicate    ID  year
##        <int> <int> <dbl>
##  1         1    33  1979
##  2         1    36  2015
##  3         1    46  2017
##  4         1     7  2008
##  5         1    12  1995
##  6         1    33  1979
##  7         1    20  1971
##  8         1    10  2000
##  9         1    28  2006
## 10         1    18  1996
## # … with 1,740 more rows

The resulting virtual_resamples data frame has 35 \(\cdot\) 50 = 1750 rows corresponding to 35 resamples of 50 pennies. Let’s now compute the resulting 35 sample means using the same dplyr code as we did in the previous section, but this time adding a group_by(replicate):

virtual_resampled_means <- virtual_resamples %>% 
  group_by(replicate) %>% 
  summarize(mean_year = mean(year))

## `summarise()` ungrouping output (override with `.groups` argument)

virtual_resampled_means

## # A tibble: 35 x 2
##    replicate mean_year
##        <int>     <dbl>
##  1         1     1996.
##  2         2     1995.
##  3         3     1990.
##  4         4     1996.
##  5         5     1997.
##  6         6     1994.
##  7         7     1998.
##  8         8     1993.
##  9         9     1999.
## 10        10     1993.
## # … with 25 more rows
…
## `summarise()` ungrouping output (override with `.groups` argument)

However, in the interest of brevity, going forward let’s combine these two operations into a single chain of pipe (%>%) operators:

virtual_resampled_means <- pennies_sample %>% 
  rep_sample_n(size = 50, replace = TRUE, reps = 1000) %>% 
  group_by(replicate) %>% 
  summarize(mean_year = mean(year))

## `summarise()` ungrouping output (override with `.groups` argument)

virtual_resampled_means

## # A tibble: 1,000 x 2
##    replicate mean_year
##        <int>     <dbl>
##  1         1     1993.
##  2         2     1996.
##  3         3     1993.
##  4         4     1992.
##  5         5     1995.
##  6         6     1999.
##  7         7     1995.
##  8         8     1992.
##  9         9     1992.
## 10        10     1998.
## # … with 990 more rows
…
