7.7 Case study: Is yawning contagious? | Preceptor’s Primer for Bayesian Data Science
…
7.7 Case study: Is yawning contagious?

Let’s apply our knowledge of confidence intervals to answer the question: “Is yawning contagious?” If you see someone else yawn, are you more likely to yawn? In an episode of the US show Mythbusters, the hosts conducted an experiment to answer this question. The episode is available to view in the United States on the Discovery Network website here and more information about the episode is also available on IMDb.

7.7.1 Mythbusters study data

Fifty adult participants who thought they were being considered for an appearance on the show were interviewed by a show recruiter. In the interview, the recruiter either yawned or did not. Participants then sat by themselves in a large van and were asked to wait. While in the van, the Mythbusters team watched the participants using a hidden camera to see if they yawned. The data frame containing the results of their experiment is available in the mythbusters_yawn data frame included in the moderndive package: 

mythbusters_yawn

## # A tibble: 50 x 3
##     subj group   yawn 
##    <int> <chr>   <chr>
##  1     1 seed    yes  
##  2     2 control yes  
##  3     3 seed    no   
##  4     4 seed    yes  
##  5     5 seed    no   
##  6     6 control no   
##  7     7 seed    yes  
##  8     8 control no   
##  9     9 control no   
## 10    10 seed    no   
## # … with 40 more rows
…
Second, the order of the subtraction in the difference doesn’t matter so long as you are consistent and tailor your interpretations accordingly. In other words, using a point estimate of \(\widehat{p}_{seed} - \widehat{p}_{control}\) or \(\widehat{p}_{control} - \widehat{p}_{seed}\) does not make a material difference, you just need to stay consistent and interpret your results accordingly.

7.7.3 Constructing the confidence interval

Let’s first construct the bootstrap distribution for \(\widehat{p}_{seed} - \widehat{p}_{control}\) and then use this to construct 95% confidence intervals for \(p_{seed} - p_{control}\).

Our first step is to perform bootstrap resampling with replacement like we did with the slips of paper in our pennies activity in Section 7.1. However, instead of calculating a mean, we are now calculating a difference in means. As we’ll see, the basic process remains the same, which is one of the reasons the bootstrap is such a powerful tool.

We start by using rep_sample_n() to get 1,000 replicates, or, in other words, we bootstrap resample the 50 participants with replacement 1,000 times.

mythbusters_yawn %>%
  rep_sample_n(size = 50, reps = 1000, replace = TRUE)

## # A tibble: 50,000 x 4
## # Groups:   replicate [1,000]
##    replicate  subj group   yawn 
##        <int> <int> <chr>   <chr>
##  1         1    35 seed    yes  
##  2         1    13 control no   
##  3         1    17 seed    no   
##  4         1    25 control yes  
##  5         1     4 seed    yes  
##  6         1    38 seed    no   
##  7         1    41 seed    no   
##  8         1    41 seed    no   
##  9         1    44 seed    no   
## 10         1    18 seed    no   
## # … with 49,990 more rows

Observe that the resulting data frame has 50,000 rows. This is because we performed resampling of 50 participants with replacement 1,000 times and 50,000 = 1,000 \(\cdot\) 50. The variable replicate indicates which resample each row belongs to. So it has the value 1 50 times, the value 2 50 times, all the way through to the value 1000 50 times.

After we generate many replicates of bootstrap resampling with replacement, we next want to summarize the bootstrap resamples of size 50 with a single summary statistic, the difference in proportions. All this requires is taking the proportion of “yes” outcomes for both groups (control and seed) and then subtracting those proportions from one another. To do this, we will group_by() both replicate and group:

mythbusters_yawn %>%
  rep_sample_n(size = 50, reps = 1000, replace = TRUE) %>%
  group_by(replicate, group) %>%
  summarize(prop_yawn = mean(yawn == "yes"))

## `summarise()` regrouping output by 'replicate' (override with `.groups` argument)

## # A tibble: 2,000 x 3
## # Groups:   replicate [1,000]
##    replicate group   prop_yawn
##        <int> <chr>       <dbl>
##  1         1 control    0.0588
##  2         1 seed       0.182 
##  3         2 control    0.3   
##  4         2 seed       0.275 
##  5         3 control    0.316 
##  6         3 seed       0.258 
##  7         4 control    0.389 
##  8         4 seed       0.312 
##  9         5 control    0.385 
## 10         5 seed       0.162 
## # … with 1,990 more rows
We now have two rows per replicate, the first being control and the second being seed. That means we can construct our difference in proportions by grouping by replicate and subtracting one prop_yawn from the other:

mythbusters_yawn %>%
  rep_sample_n(size = 50, reps = 1000, replace = TRUE) %>%
  group_by(replicate, group) %>%
  summarize(prop_yawn = mean(yawn == "yes")) %>%
  pivot_wider(names_from = group, values_from = prop_yawn) %>% 
  group_by(replicate) %>%
  summarize(diff_prop_yawn = seed - control)

## `summarise()` regrouping output by 'replicate' (override with `.groups` argument)

## `summarise()` ungrouping output (override with `.groups` argument)

## # A tibble: 1,000 x 2
##    replicate diff_prop_yawn
##        <int>          <dbl>
##  1         1        0.0347 
##  2         2       -0.0146 
##  3         3        0.149  
##  4         4       -0.0492 
##  5         5        0.132  
##  6         6        0.0921 
##  7         7       -0.00794
##  8         8       -0.0190 
##  9         9        0.0153 
## 10        10        0.0746 
## # … with 990 more rows
…
