7.3 Width of confidence intervals | Preceptor’s Primer for Bayesian Data Science
…
Finally, we’ll compare the widths of these intervals.

We’ll start by walking through the process for the 80% confidence intervals. We begin by taking 10 random samples from the urn of size \(n = 50\):

set.seed(9)

# Compute 80% confidence intervals

# Get 10 random samples

perc_cis_80 <- urn %>%
  rep_sample_n(size = 50, reps = 10)
perc_cis_80

## # A tibble: 500 x 3
## # Groups:   replicate [10]
##    replicate ball_ID color
##        <int>   <int> <chr>
##  1         1    2235 red  
##  2         1    1589 white
##  3         1    1286 white
##  4         1    1851 white
##  5         1     408 red  
##  6         1     595 red  
##  7         1    1027 red  
##  8         1     556 red  
##  9         1     549 white
## 10         1      42 red  
## # … with 490 more rows
…
# Combine into single data frame

percentile_cis_by_level <- bind_rows(perc_cis_80, perc_cis_95, perc_cis_99)
percentile_cis_by_level

## # A tibble: 30 x 5
## # Groups:   replicate [10]
##    replicate lower upper sample_size confidence_level
##        <int> <dbl> <dbl>       <dbl>            <dbl>
##  1         1 0.34   0.54          50              0.8
##  2         2 0.34   0.52          50              0.8
##  3         3 0.34   0.52          50              0.8
##  4         4 0.26   0.42          50              0.8
##  5         5 0.32   0.48          50              0.8
##  6         6 0.34   0.52          50              0.8
##  7         7 0.338  0.5           50              0.8
##  8         8 0.28   0.44          50              0.8
##  9         9 0.3    0.48          50              0.8
## 10        10 0.32   0.52          50              0.8
## # … with 20 more rows
…
## `summarise()` ungrouping output (override with `.groups` argument)
## `summarise()` ungrouping output (override with `.groups` argument)
## `summarise()` ungrouping output (override with `.groups` argument)
## `summarise()` ungrouping output (override with `.groups` argument)
## `summarise()` ungrouping output (override with `.groups` argument)
## `summarise()` ungrouping output (override with `.groups` argument)
## `summarise()` ungrouping output (override with `.groups` argument)
## `summarise()` ungrouping output (override with `.groups` argument)
## `summarise()` ungrouping output (override with `.groups` argument)
## `summarise()` ungrouping output (override with `.groups` argument)
## `summarise()` ungrouping output (override with `.groups` argument)
## `summarise()` ungrouping output (override with `.groups` argument)
## `summarise()` ungrouping output (override with `.groups` argument)

## # A tibble: 30 x 5
##    replicate lower upper sample_size confidence_level
##        <int> <dbl> <dbl>       <dbl>            <dbl>
##  1         1  0.24 0.4            50              0.8
##  2         2  0.26 0.42           50              0.8
##  3         3  0.28 0.48           50              0.8
##  4         4  0.14 0.28           50              0.8
##  5         5  0.26 0.42           50              0.8
##  6         6  0.34 0.52           50              0.8
##  7         7  0.26 0.42           50              0.8
##  8         8  0.12 0.28           50              0.8
##  9         9  0.42 0.580          50              0.8
## 10        10  0.26 0.42           50              0.8
## # … with 20 more rows
…
