Chapter 1 Basic Regression | Preceptor’s Primer for Bayesian Data Science
…
\[
\sum_{i=1}^{n}(y_i - \widehat{y}_i)^2
\]

Let’s use our data wrangling tools from Chapter ?? to compute the sum of squared residuals exactly:

# Fit regression model:
score_model <- lm(score ~ bty_avg, 
                  data = evals_ch5)

# Get regression points:
regression_points <- get_regression_points(score_model)
regression_points

# A tibble: 463 x 5
      ID score bty_avg score_hat residual
   <int> <dbl>   <dbl>     <dbl>    <dbl>
 1     1   4.7    5         4.21    0.486
 2     2   4.1    5         4.21   -0.114
 3     3   3.9    5         4.21   -0.314
 4     4   4.8    5         4.21    0.586
 5     5   4.6    3         4.08    0.52 
 6     6   4.3    3         4.08    0.22 
 7     7   2.8    3         4.08   -1.28 
 8     8   4.1    3.33      4.10   -0.002
 9     9   3.4    3.33      4.10   -0.702
10    10   4.5    3.17      4.09    0.409
# … with 453 more rows
…
