Chapter 10 Confidence Intervals | Preceptor’s Primer for Bayesian Data Science
…
FIGURE 10.2: 50 US pennies labelled.

The moderndive  package contains this data on our 50 sampled pennies in the pennies_sample data frame:

library(moderndive)

pennies_sample

# A tibble: 50 x 2
      ID  year
   <int> <dbl>
 1     1  2002
 2     2  1986
 3     3  2017
 4     4  1988
 5     5  2008
 6     6  1983
 7     7  2008
 8     8  1996
 9     9  2004
10    10  2000
# … with 40 more rows
…
FIGURE 10.10: Snapshot of shared spreadsheet of resampled pennies.

These 35 \(\cdot\) 50 = 1750 values are saved in pennies_resamples, a “tidy” data frame included in the moderndive package. We saw what it means for a data frame to be “tidy” in Subsection 5.3.1.

pennies_resamples

# A tibble: 1,750 x 3
# Groups:   name [35]
   replicate name     year
       <int> <chr>   <dbl>
 1         1 Arianna  1988
 2         1 Arianna  2002
 3         1 Arianna  2015
 4         1 Arianna  1998
 5         1 Arianna  1979
 6         1 Arianna  1971
 7         1 Arianna  1971
 8         1 Arianna  2015
 9         1 Arianna  1988
10         1 Arianna  1979
# … with 1,740 more rows

What did each of our 35 friends obtain as the mean year? Once again, dplyr to the rescue! After grouping the rows by name, we summarize each group of 50 rows by their mean year:

resampled_means <- pennies_resamples %>% 
  group_by(name) %>% 
  summarize(mean_year = mean(year))
resampled_means

# A tibble: 35 x 2
   name      mean_year
   <chr>         <dbl>
 1 Arianna     1992.5 
 2 Artemis     1996.42
 3 Bea         1996.32
 4 Camryn      1996.9 
 5 Cassandra   1991.22
 6 Cindy       1995.48
 7 Claire      1995.52
 8 Dahlia      1998.48
 9 Dan         1993.86
10 Eindra      1993.56
# … with 25 more rows
…
virtual_shovel <- urn %>% 
  rep_sample_n(size = 50)

Let’s modify this code to perform the resampling with replacement of the 50 slips of paper representing our original sample of 50 pennies:

virtual_resample <- pennies_sample %>% 
  rep_sample_n(size = 50, replace = TRUE)

Observe how we explicitly set the replace argument to TRUE in order to tell rep_sample_n() that we would like to sample pennies  with replacement. Had we not set replace = TRUE, the function would’ve assumed the default value of FALSE and hence done resampling without replacement. Additionally, since we didn’t specify the number of replicates via the reps argument, the function assumes the default of one replicate reps = 1. Lastly, observe also that the size argument is set to match the original sample size of 50 pennies.

Let’s look at only the first 10 out of 50 rows of virtual_resample:

virtual_resample

# A tibble: 50 x 3
# Groups:   replicate [1]
   replicate    ID  year
       <int> <int> <dbl>
 1         1    37  1962
 2         1     1  2002
 3         1    45  1997
 4         1    28  2006
 5         1    50  2017
 6         1    10  2000
 7         1    16  2015
 8         1    47  1982
 9         1    23  1998
10         1    44  2015
# … with 40 more rows
…
As we saw when we did our tactile resampling exercise, the resulting mean year is different than the mean year of our 50 originally sampled pennies of 1995.44.

10.1.6 Virtually resampling 35 times

Let’s now perform the virtual analog of our 35 friends’ resampling. Using these results, we’ll be able to study the variability in the sample means from 35 resamples of size 50. Let’s first add a reps = 35 argument to rep_sample_n()  to indicate we would like 35 replicates. Thus, we want to repeat the resampling with the replacement of 50 pennies 35 times.

virtual_resamples <- pennies_sample %>% 
  rep_sample_n(size = 50, replace = TRUE, reps = 35)
virtual_resamples

# A tibble: 1,750 x 3
# Groups:   replicate [35]
   replicate    ID  year
       <int> <int> <dbl>
 1         1    21  1981
 2         1    34  1985
 3         1     4  1988
 4         1    11  1994
 5         1    26  1979
 6         1     8  1996
 7         1    19  1983
 8         1    21  1981
 9         1    49  2006
10         1     2  1986
# … with 1,740 more rows

The resulting virtual_resamples data frame has 35 \(\cdot\) 50 = 1750 rows corresponding to 35 resamples of 50 pennies. Let’s now compute the resulting 35 sample means using the same dplyr code as we did in the previous section, but this time adding a group_by(replicate):

virtual_resampled_means <- virtual_resamples %>% 
  group_by(replicate) %>% 
  summarize(mean_year = mean(year))
virtual_resampled_means

# A tibble: 35 x 2
   replicate mean_year
       <int>     <dbl>
 1         1   1995.58
 2         2   1999.74
 3         3   1993.7 
 4         4   1997.1 
 5         5   1999.42
 6         6   1995.12
 7         7   1994.94
 8         8   1997.78
 9         9   1991.26
10        10   1996.88
# … with 25 more rows
…
# Compute 1,000 sample means

virtual_resampled_means <- virtual_resamples %>% 
  group_by(replicate) %>% 
  summarize(mean_year = mean(year))

However, in the interest of brevity, going forward let’s combine these two operations into a single chain of pipe (%>%) operators:

virtual_resampled_means <- pennies_sample %>% 
  rep_sample_n(size = 50, replace = TRUE, reps = 1000) %>% 
  group_by(replicate) %>% 
  summarize(mean_year = mean(year))
virtual_resampled_means

# A tibble: 1,000 x 2
   replicate mean_year
       <int>     <dbl>
 1         1   1992.6 
 2         2   1994.78
 3         3   1994.74
 4         4   1997.88
 5         5   1990   
 6         6   1999.48
 7         7   1990.26
 8         8   1993.2 
 9         9   1994.88
10        10   1996.3 
# … with 990 more rows
…
Finally, we’ll compare the widths of these intervals.

We’ll start by walking through the process for the 80% confidence intervals. We begin by taking 10 random samples from the urn of size \(n = 50\):

set.seed(9)

# Compute 80% confidence intervals

# Get 10 random samples

perc_cis_80 <- urn %>%
  rep_sample_n(size = 50, reps = 10)
perc_cis_80

# A tibble: 500 x 3
# Groups:   replicate [10]
   replicate ball_ID color
       <int>   <int> <chr>
 1         1    2235 red  
 2         1    1589 white
 3         1    1286 white
 4         1    1851 white
 5         1     408 red  
 6         1     595 red  
 7         1    1027 red  
 8         1     556 red  
 9         1     549 white
10         1      42 red  
# … with 490 more rows
…
Note that we saved the sample size as sample_size and the confidence level as confidence_level for convenient display later.

So we now could create our objects like so:

perc_cis_80 <- urn_confidence(bowl = urn, n = 50, level = 0.80)
perc_cis_95 <- urn_confidence(bowl = urn, n = 50, level = 0.95)
perc_cis_99 <- urn_confidence(bowl = urn, n = 50, level = 0.99)

# Combine into single data frame

percentile_cis_by_level <- bind_rows(perc_cis_80, perc_cis_95, perc_cis_99)
percentile_cis_by_level

# A tibble: 30 x 5
# Groups:   replicate [10]
   replicate lower upper sample_size confidence_level
       <int> <dbl> <dbl>       <dbl>            <dbl>
 1         1  0.36  0.54          50              0.8
 2         2  0.26  0.42          50              0.8
 3         3  0.34  0.52          50              0.8
 4         4  0.28  0.46          50              0.8
 5         5  0.36  0.52          50              0.8
 6         6  0.3   0.48          50              0.8
 7         7  0.28  0.44          50              0.8
 8         8  0.28  0.46          50              0.8
 9         9  0.3   0.46          50              0.8
10        10  0.28  0.44          50              0.8
# … with 20 more rows
…
# A tibble: 3 x 2
  level data             
  <dbl> <list>           
1  0.8  <tibble [10 × 5]>
2  0.95 <tibble [10 × 5]>
3  0.99 <tibble [10 × 5]>

Now that we have a list column, we want to unnest() it so we can see our actual data. Further, we won’t need the redundant column level any more:

tibble(level = c(0.80, 0.95, 0.99)) %>%
  mutate(data = map(level, ~ urn_confidence(bowl = urn, n = 50, level = .))) %>%
  unnest(data) %>%
  select(-level)

# A tibble: 30 x 5
   replicate lower upper sample_size confidence_level
       <int> <dbl> <dbl>       <dbl>            <dbl>
 1         1  0.26  0.42          50              0.8
 2         2  0.26  0.44          50              0.8
 3         3  0.3   0.48          50              0.8
 4         4  0.12  0.26          50              0.8
 5         5  0.28  0.44          50              0.8
 6         6  0.3   0.48          50              0.8
 7         7  0.28  0.44          50              0.8
 8         8  0.14  0.3           50              0.8
 9         9  0.38  0.56          50              0.8
10        10  0.28  0.44          50              0.8
# … with 20 more rows
…
These are not identical to our bootstrap confidence interval estimates, but they are close enough. Thus, if you are interested in constructing a confidence interval for a mean, you can use lm() and tidy() as a shortcut. tidy() also has an argument, conf.level, which allows us to specify the confidence level. By default, it is 0.95.

10.5 Case study: Is yawning contagious?

Let’s apply our knowledge of confidence intervals to answer the question: “Is yawning contagious?” If you see someone else yawn, are you more likely to yawn? In an episode of the US show Mythbusters, the hosts conducted an experiment to answer this question. The episode is available to view in the United States on the Discovery Network website here and more information about the episode is also available on IMDb.

10.5.1 Mythbusters study data

Fifty adult participants who thought they were being considered for an appearance on the show were interviewed by a show recruiter. In the interview, the recruiter either yawned or did not. Participants then sat by themselves in a large van and were asked to wait. While in the van, the Mythbusters team watched the participants using a hidden camera to see if they yawned. The data frame containing the results of their experiment is available in the mythbusters_yawn data frame included in the moderndive package: 

mythbusters_yawn

# A tibble: 50 x 3
    subj group   yawn 
   <int> <chr>   <chr>
 1     1 seed    yes  
 2     2 control yes  
 3     3 seed    no   
 4     4 seed    yes  
 5     5 seed    no   
 6     6 control no   
 7     7 seed    yes  
 8     8 control no   
 9     9 control no   
10    10 seed    no   
# … with 40 more rows
…
Second, the order of the subtraction in the difference doesn’t matter so long as you are consistent and tailor your interpretations accordingly. In other words, using a point estimate of \(\widehat{p}_{seed} - \widehat{p}_{control}\) or \(\widehat{p}_{control} - \widehat{p}_{seed}\) does not make a material difference, you just need to stay consistent and interpret your results accordingly.

10.5.3 Constructing the confidence interval

Let’s first construct the bootstrap distribution for \(\widehat{p}_{seed} - \widehat{p}_{control}\) and then use this to construct 95% confidence intervals for \(p_{seed} - p_{control}\).

Our first step is to perform bootstrap resampling with replacement like we did with the slips of paper in our pennies activity in Section 10.1. However, instead of calculating a mean, we are now calculating a difference in means. As we’ll see, the basic process remains the same, which is one of the reasons the bootstrap is such a powerful tool.

We start by using rep_sample_n() to get 1,000 replicates, or, in other words, we bootstrap resample the 50 participants with replacement 1,000 times.

mythbusters_yawn %>%
  rep_sample_n(size = 50, reps = 1000, replace = TRUE)

# A tibble: 50,000 x 4
# Groups:   replicate [1,000]
   replicate  subj group   yawn 
       <int> <int> <chr>   <chr>
 1         1    35 seed    yes  
 2         1    13 control no   
 3         1    17 seed    no   
 4         1    25 control yes  
 5         1     4 seed    yes  
 6         1    38 seed    no   
 7         1    41 seed    no   
 8         1    41 seed    no   
 9         1    44 seed    no   
10         1    18 seed    no   
# … with 49,990 more rows

Observe that the resulting data frame has 50,000 rows. This is because we performed resampling of 50 participants with replacement 1,000 times and 50,000 = 1,000 \(\cdot\) 50. The variable replicate indicates which resample each row belongs to. So it has the value 1 50 times, the value 2 50 times, all the way through to the value 1000 50 times.

After we generate many replicates of bootstrap resampling with replacement, we next want to summarize the bootstrap resamples of size 50 with a single summary statistic, the difference in proportions. All this requires is taking the proportion of “yes” outcomes for both groups (control and seed) and then subtracting those proportions from one another. To do this, we will group_by() both replicate and group:

mythbusters_yawn %>%
  rep_sample_n(size = 50, reps = 1000, replace = TRUE) %>%
  group_by(replicate, group) %>%
  summarize(prop_yawn = mean(yawn == "yes"))

# A tibble: 2,000 x 3
# Groups:   replicate [1,000]
   replicate group   prop_yawn
       <int> <chr>       <dbl>
 1         1 control 0.0588235
 2         1 seed    0.181818 
 3         2 control 0.3      
 4         2 seed    0.275    
 5         3 control 0.315789 
 6         3 seed    0.258065 
 7         4 control 0.388889 
 8         4 seed    0.3125   
 9         5 control 0.384615 
10         5 seed    0.162162 
# … with 1,990 more rows

We now have two rows per replicate, the first being control and the second being seed. That means we can construct our difference in proportions by grouping by replicate and subtracting one prop_yawn from the other:

mythbusters_yawn %>%
  rep_sample_n(size = 50, reps = 1000, replace = TRUE) %>%
  group_by(replicate, group) %>%
  summarize(prop_yawn = mean(yawn == "yes")) %>%
  pivot_wider(names_from = group, values_from = prop_yawn) %>% 
  group_by(replicate) %>%
  summarize(diff_prop_yawn = seed - control)

# A tibble: 1,000 x 2
   replicate diff_prop_yawn
       <int>          <dbl>
 1         1     0.0347222 
 2         2    -0.0145530 
 3         3     0.149123  
 4         4    -0.0492360 
 5         5     0.132428  
 6         6     0.0921053 
 7         7    -0.00793651
 8         8    -0.0190476 
 9         9     0.0152801 
10        10     0.0745921 
# … with 990 more rows
…
