Chapter 11 Machine Learning | Preceptor’s Primer for Bayesian Data Science
…
If the outcomes are binary, both RMSE and MSE are equivalent to accuracy, since \((\hat{y} - y)^2\) is 0 if the prediction was correct and 1 otherwise. In general, our goal is to build an algorithm that minimizes the loss so it is as close to 0 as possible.

11.3 Data: Cooperative Congressional Election Study (CCES)

Now that we have a way to evaluate models, we’re almost ready to start going through the modeling process using tidymodels. However, we’ll first need some data!

For this chapter, we’ll be using data from the Cooperative Congressional Election Study, a large survey of Americans that asks many questions relevant to American politics and elections. You can learn more about the study here.

Let’s start by downloading the file called “cumulative_2006_2018.rds” at the CCES Dataverse. After you have downloaded it, load it into your environment with the name “cces” using cces <- read_rds("cumulative_2006_2018.rds"). Be sure to load the tidyverse and tidymodels packages before running the code in this chapter.

Take a look at the cces object:

cces

# A tibble: 452,755 x 73
    year case_id weight weight_cumulati… state st    cd     dist dist_up  cong
   <int>   <int>  <dbl>            <dbl> <chr> <chr> <chr> <int>   <int> <int>
 1  2006  439219  1.85             1.67  Nort… NC    NC-10    10      10   109
 2  2006  439224  0.968            0.872 Ohio  OH    OH-3      3       3   109
 3  2006  439228  1.59             1.44  New … NJ    NJ-1      1       1   109
 4  2006  439237  1.40             1.26  Illi… IL    IL-9      9       9   109
 5  2006  439238  0.903            0.813 New … NY    NY-22    22      22   109
 6  2006  439242  0.839            0.756 Texas TX    TX-11    11      11   109
 7  2006  439251  0.777            0.700 Minn… MN    MN-3      3       3   109
 8  2006  439254  0.839            0.756 Neva… NV    NV-2      2       2   109
 9  2006  439255  0.331            0.299 Texas TX    TX-24    24      24   109
10  2006  439263  1.10             0.993 Mary… MD    MD-2      2       2   109
# … with 452,745 more rows, and 63 more variables: cong_up <int>,
#   zipcode <chr>, county_fips <chr>, tookpost <int+lbl>, weight_post <dbl>,
#   rvweight <dbl>, rvweight_post <dbl>, starttime <dttm>, pid3 <int+lbl>,
#   pid3_leaner <int+lbl>, pid7 <int+lbl>, ideo5 <fct>, gender <int+lbl>,
#   birthyr <int>, age <int>, race <int+lbl>, hispanic <int+lbl>,
#   educ <int+lbl>, faminc <fct>, marstat <int+lbl>, economy_retro <int+lbl>,
#   newsint <int+lbl>, approval_pres <int+lbl>, approval_rep <fct>,
#   approval_sen1 <fct>, approval_sen2 <fct>, approval_gov <int+lbl>,
#   intent_pres_08 <fct>, intent_pres_12 <fct>, intent_pres_16 <fct>,
…
Now that we have fit a model on the training set, is it time to make predictions on the test set? In general, we would not want to predict the test set at this point, although we will do so to illustrate how the code works. In a real scenario, we would use resampling methods (e.g., cross-validation, bootstrapping) to evaluate how well the model is doing. tidymodels has a great infrastructure to do this with rsample, and we will talk about this soon to demonstrate how we should really evaluate models.

To make predictions, we’ll use the predict() function. We will use the argument new_data = cces_test to make predictions on the test set.

lm_spec %>%
  
  # Train: get fitted model
  
  fit(basic_form, data = cces_train) %>%
  
  # Test: get predictions
  
  predict(new_data = cces_test)

# A tibble: 89,442 x 1
   .pred
   <dbl>
 1 0.944
 2 3.10 
 3 2.56 
 4 4.18 
 5 4.18 
 6 2.56 
 7 3.64 
 8 2.56 
 9 4.18 
10 4.18 
# … with 89,432 more rows
…
