Chapter 11 Regression | Preceptor’s Primer for Bayesian Data Science
…
11.2 Uncertainty in simple linear regressions

You might be wondering what the remaining five columns created by tidy() are: std.error, statistic, p.value, conf.low and conf.high. They are the standard error, test statistic, p-value, lower 95% confidence interval bound, and upper 95% confidence interval bound. We will focus on the confidence interval bounds. We have already explored the concept of confidence intervals in Chapter 10. These bounds are an application the same concept, but applied to the slope of our simple linear regression.

Let’s load the infer package. We’re going to use the function rep_sample_n() to reample from our data 1000 times:

library(infer)

x <- evals_ch11 %>% 
  select(score, bty_avg) %>% 
  rep_sample_n(size = nrow(evals_ch11), replace = TRUE, reps = 1000)

x

# A tibble: 463,000 x 3
# Groups:   replicate [1,000]
   replicate score bty_avg
       <int> <dbl>   <dbl>
 1         1   4.5 6.833  
 2         1   4.8 6.5    
 3         1   4.4 3.667  
 4         1   3.2 2.66700
 5         1   5   5.5    
 6         1   4.8 4.5    
 7         1   4.4 3.833  
 8         1   3.8 3.16700
 9         1   4.9 3.5    
10         1   3.7 7.167  
# … with 462,990 more rows

For each replicate, we have 463 resamples of score and bty_avg.

Next, we are going to introduce a new function: nest():

x <- x %>% 
  group_by(replicate) %>% 
  nest()

x

# A tibble: 1,000 x 2
# Groups:   replicate [1,000]
   replicate data              
       <int> <list>            
 1         1 <tibble [463 × 2]>
 2         2 <tibble [463 × 2]>
 3         3 <tibble [463 × 2]>
 4         4 <tibble [463 × 2]>
 5         5 <tibble [463 × 2]>
 6         6 <tibble [463 × 2]>
 7         7 <tibble [463 × 2]>
 8         8 <tibble [463 × 2]>
 9         9 <tibble [463 × 2]>
10        10 <tibble [463 × 2]>
# … with 990 more rows

nest() comes from the tidyr package. It’s easiest to understand what nest() does by looking at its output. After grouping by replicate and using nest(), we now have a dataset of 1000 rows and a list column named data. What’s in this list column? Each element of data is a tibble consisting of one of the resampled datasets we created using rep_sample_n(). nest() is thus a useful function when you have a series of bootstrapped samples and want to run the same function on each sample.

Now, we can use map() to run our linear regression for each dataset:

x <- x %>% 
  mutate(mod = map(data, ~ lm(score ~ bty_avg, data = .)))

x

# A tibble: 1,000 x 3
# Groups:   replicate [1,000]
   replicate data               mod   
       <int> <list>             <list>
 1         1 <tibble [463 × 2]> <lm>  
 2         2 <tibble [463 × 2]> <lm>  
 3         3 <tibble [463 × 2]> <lm>  
 4         4 <tibble [463 × 2]> <lm>  
 5         5 <tibble [463 × 2]> <lm>  
 6         6 <tibble [463 × 2]> <lm>  
 7         7 <tibble [463 × 2]> <lm>  
 8         8 <tibble [463 × 2]> <lm>  
 9         9 <tibble [463 × 2]> <lm>  
10        10 <tibble [463 × 2]> <lm>  
# … with 990 more rows

Now we have a new list column, mod, that contains the model objects created by lm(). We will now want to tidy() the object created by lm():

x <- x %>% 
  mutate(reg_results = map(mod, ~ tidy(.)))

x

# A tibble: 1,000 x 4
# Groups:   replicate [1,000]
   replicate data               mod    reg_results     
       <int> <list>             <list> <list>          
 1         1 <tibble [463 × 2]> <lm>   <tibble [2 × 5]>
 2         2 <tibble [463 × 2]> <lm>   <tibble [2 × 5]>
 3         3 <tibble [463 × 2]> <lm>   <tibble [2 × 5]>
 4         4 <tibble [463 × 2]> <lm>   <tibble [2 × 5]>
 5         5 <tibble [463 × 2]> <lm>   <tibble [2 × 5]>
 6         6 <tibble [463 × 2]> <lm>   <tibble [2 × 5]>
 7         7 <tibble [463 × 2]> <lm>   <tibble [2 × 5]>
 8         8 <tibble [463 × 2]> <lm>   <tibble [2 × 5]>
 9         9 <tibble [463 × 2]> <lm>   <tibble [2 × 5]>
10        10 <tibble [463 × 2]> <lm>   <tibble [2 × 5]>
# … with 990 more rows

tidy() stores the coefficients in the estimate column, with each coefficient named in the term column. Thus, if we filter() by term and pull(estimate), we can get the regression coefficient for each bootstrap sample:

x <- x %>%
  mutate(disp_coef = map_dbl(reg_results, ~ filter(., term == "bty_avg") %>% pull(estimate)))

x

# A tibble: 1,000 x 5
# Groups:   replicate [1,000]
   replicate data               mod    reg_results      disp_coef
       <int> <list>             <list> <list>               <dbl>
 1         1 <tibble [463 × 2]> <lm>   <tibble [2 × 5]> 0.0786136
 2         2 <tibble [463 × 2]> <lm>   <tibble [2 × 5]> 0.0768437
 3         3 <tibble [463 × 2]> <lm>   <tibble [2 × 5]> 0.0608634
 4         4 <tibble [463 × 2]> <lm>   <tibble [2 × 5]> 0.0776020
 5         5 <tibble [463 × 2]> <lm>   <tibble [2 × 5]> 0.0894999
 6         6 <tibble [463 × 2]> <lm>   <tibble [2 × 5]> 0.0601213
 7         7 <tibble [463 × 2]> <lm>   <tibble [2 × 5]> 0.0654890
 8         8 <tibble [463 × 2]> <lm>   <tibble [2 × 5]> 0.0735311
 9         9 <tibble [463 × 2]> <lm>   <tibble [2 × 5]> 0.0886716
10        10 <tibble [463 × 2]> <lm>   <tibble [2 × 5]> 0.0517023
# … with 990 more rows
…
bty_avg = 5.50 is the value of the explanatory variable bty_avg \(x\) for this course’s instructor.

.fitted = 4.25 = 3.88 + 0.067 \(\cdot\) 5.50 is the fitted value \(\widehat{y}\) on the regression line for this course’s instructor.

.resid = 0.153 = 4.4 - 4.25 is the value of the residual for this instructor. In other words, the model’s fitted value was off by 0.153 teaching score units for this course’s instructor.

At this point, you can skip ahead if you like to Section 11.5 to learn about the processes behind what makes “best-fitting” regression lines. As a primer, a “best-fitting” line refers to the line that minimizes the sum of squared residuals out of all possible lines we can draw through the points. In Section 11.3, we’ll discuss another common scenario of having a categorical explanatory variable and a numerical outcome variable.

Constructing a measure of uncertainty around the fitted values can also be done using the augment() function. The simplest way to do this is through the standard error method that we learned in the last chapter. Note that augment() saves the standard errors of the fitted values in a column called .se.fit:

score_model %>%
  augment() %>%
  select(score, bty_avg, .fitted, .se.fit, .resid)

# A tibble: 463 x 5
   score bty_avg .fitted   .se.fit      .resid
   <dbl>   <dbl>   <dbl>     <dbl>       <dbl>
 1 4.7   5       4.21352 0.0266038  0.486477  
 2 4.100 5       4.21352 0.0266038 -0.113523  
 3 3.9   5       4.21352 0.0266038 -0.313523  
 4 4.8   5       4.21352 0.0266038  0.586477  
 5 4.600 3       4.08025 0.0339315  0.519751  
 6 4.3   3       4.08025 0.0339315  0.219751  
 7 2.8   3       4.08025 0.0339315 -1.28025   
 8 4.100 3.333   4.10244 0.0304986 -0.00243920
 9 3.4   3.333   4.10244 0.0304986 -0.702439  
10 4.5   3.16700 4.09138 0.0321413  0.408623  
# … with 453 more rows

Now that we have the standard error of the fitted values, we can construct a confidence interval easily:

score_model %>%
  augment() %>%
  mutate(conf.low = .fitted - 2 * .se.fit,
         conf.high = .fitted + 2 * .se.fit) %>%
  select(score, bty_avg, .fitted, conf.low, conf.high, .resid)

# A tibble: 463 x 6
   score bty_avg .fitted conf.low conf.high      .resid
   <dbl>   <dbl>   <dbl>    <dbl>     <dbl>       <dbl>
 1 4.7   5       4.21352  4.16032   4.26673  0.486477  
 2 4.100 5       4.21352  4.16032   4.26673 -0.113523  
 3 3.9   5       4.21352  4.16032   4.26673 -0.313523  
 4 4.8   5       4.21352  4.16032   4.26673  0.586477  
 5 4.600 3       4.08025  4.01239   4.14811  0.519751  
 6 4.3   3       4.08025  4.01239   4.14811  0.219751  
 7 2.8   3       4.08025  4.01239   4.14811 -1.28025   
 8 4.100 3.333   4.10244  4.04144   4.16344 -0.00243920
 9 3.4   3.333   4.10244  4.04144   4.16344 -0.702439  
10 4.5   3.16700 4.09138  4.02709   4.15566  0.408623  
# … with 453 more rows
…
Let’s use our data wrangling tools from Chapter 4 to compute the sum of squared residuals exactly:

# Fit regression model:

score_model <- lm(score ~ bty_avg, 
                  data = evals_ch11)

# Get regression points:

regression_points <- score_model %>%
  augment()
regression_points

# A tibble: 463 x 9
   score bty_avg .fitted   .se.fit      .resid       .hat   .sigma    .cooksd
   <dbl>   <dbl>   <dbl>     <dbl>       <dbl>      <dbl>    <dbl>      <dbl>
 1 4.7   5       4.21352 0.0266038  0.486477   0.00247427 0.534934 1.02862e-3
 2 4.100 5       4.21352 0.0266038 -0.113523   0.00247427 0.535390 5.60142e-5
 3 3.9   5       4.21352 0.0266038 -0.313523   0.00247427 0.535216 4.27236e-4
 4 4.8   5       4.21352 0.0266038  0.586477   0.00247427 0.534716 1.49496e-3
 5 4.600 3       4.08025 0.0339315  0.519751   0.00402501 0.534865 1.91598e-3
 6 4.3   3       4.08025 0.0339315  0.219751   0.00402501 0.535318 3.42501e-4
 7 2.8   3       4.08025 0.0339315 -1.28025    0.00402501 0.532065 1.16249e-2
 8 4.100 3.333   4.10244 0.0304986 -0.00243920 0.00325177 0.535416 3.40387e-8
 9 3.4   3.333   4.10244 0.0304986 -0.702439   0.00325177 0.534410 2.82290e-3
10 4.5   3.16700 4.09138 0.0321413  0.408623   0.00361151 0.535076 1.06171e-3
# … with 453 more rows, and 1 more variable: .std.resid <dbl>
…
