Chapter 17 Tell Your Story with Data | Preceptor’s Primer for Bayesian Data Science
…
Let’s create new log10 transformed versions of the right-skewed variable price and sqft_living using the mutate() function from Section 4.5, but we’ll give the latter the name log10_size, which is shorter and easier to understand than the name log10_sqft_living.

house_prices <- house_prices %>%
  mutate(
    log10_price = log10(price),
    log10_size = log10(sqft_living)
    )

Let’s display the before and after effects of this transformation on these variables for only the first 10 rows of house_prices:

house_prices %>% 
  select(price, log10_price, sqft_living, log10_size)

# A tibble: 21,613 x 4
     price log10_price sqft_living log10_size
     <dbl>       <dbl>       <int>      <dbl>
 1  221900     5.34616        1180    3.07188
 2  538000     5.73078        2570    3.40993
 3  180000     5.25527         770    2.88649
 4  604000     5.78104        1960    3.29226
 5  510000     5.70757        1680    3.22531
 6 1225000     6.08814        5420    3.73400
 7  257500     5.41078        1715    3.23426
 8  291850     5.46516        1060    3.02531
 9  229500     5.36078        1780    3.25042
10  323000     5.50920        1890    3.27646
# … with 21,603 more rows
…
FIGURE 17.9: Number of births in the US in 1999.

We see a big dip occurring just before January 1st, 2000, most likely due to the holiday season. However, what about the large spike of over 14,000 births occurring just before October 1st, 1999? What could be the reason for this anomalously high spike?

Let’s sort the rows of US_births_1999 in descending order of the number of births. Recall from Section 4.6 that we can use the arrange() function from the dplyr function to do this, making sure to sort births in descending order:

US_births_1999 %>% 
  arrange(desc(births))

# A tibble: 365 x 6
    year month date_of_month date       day_of_week births
   <int> <int>         <int> <date>     <ord>        <int>
 1  1999     9             9 1999-09-09 Thurs        14540
 2  1999    12            21 1999-12-21 Tues         13508
 3  1999     9             8 1999-09-08 Wed          13437
 4  1999     9            21 1999-09-21 Tues         13384
 5  1999     9            28 1999-09-28 Tues         13358
 6  1999     7             7 1999-07-07 Wed          13343
 7  1999     7             8 1999-07-08 Thurs        13245
 8  1999     8            17 1999-08-17 Tues         13201
 9  1999     9            10 1999-09-10 Fri          13181
10  1999    12            28 1999-12-28 Tues         13158
# … with 355 more rows
…
