Chapter 2 Tidyverse | Preceptor’s Primer for Bayesian Data Science
…
This code is identical to the previous code that created summary_temp, but with an extra group_by(month) added before the summarize(). Grouping the weather dataset by month and then applying the summarize() functions yields a data frame that displays the mean and standard deviation temperature split by the 12 months of the year.

It is important to note that the  group_by() function doesn’t change data frames by itself. Rather it changes the meta-data, or data about the data, specifically the grouping structure. It is only after we apply the summarize() function that the data frame changes.

For example, let’s consider the  diamonds data frame included in the ggplot2 package. Run this code:

diamonds

## # A tibble: 53,940 x 10
##    carat cut       color clarity depth table price     x     y     z
##    <dbl> <ord>     <ord> <ord>   <dbl> <dbl> <int> <dbl> <dbl> <dbl>
##  1 0.23  Ideal     E     SI2      61.5    55   326  3.95  3.98  2.43
##  2 0.21  Premium   E     SI1      59.8    61   326  3.89  3.84  2.31
##  3 0.23  Good      E     VS1      56.9    65   327  4.05  4.07  2.31
##  4 0.290 Premium   I     VS2      62.4    58   334  4.2   4.23  2.63
##  5 0.31  Good      J     SI2      63.3    58   335  4.34  4.35  2.75
##  6 0.24  Very Good J     VVS2     62.8    57   336  3.94  3.96  2.48
##  7 0.24  Very Good I     VVS1     62.3    57   336  3.95  3.98  2.47
##  8 0.26  Very Good H     SI1      61.9    55   337  4.07  4.11  2.53
##  9 0.22  Fair      E     VS2      65.1    61   337  3.87  3.78  2.49
## 10 0.23  Very Good H     VS1      59.4    61   338  4     4.05  2.39
## # … with 53,930 more rows

Observe that the first line of the output reads # A tibble: 53,940 x 10. This is an example of meta-data, in this case the number of observations/rows and variables/columns in diamonds. The actual data itself are the subsequent table of values. Now let’s pipe the diamonds data frame into group_by(cut):

diamonds %>% 
  group_by(cut)

## # A tibble: 53,940 x 10
## # Groups:   cut [5]
##    carat cut       color clarity depth table price     x     y     z
##    <dbl> <ord>     <ord> <ord>   <dbl> <dbl> <int> <dbl> <dbl> <dbl>
##  1 0.23  Ideal     E     SI2      61.5    55   326  3.95  3.98  2.43
##  2 0.21  Premium   E     SI1      59.8    61   326  3.89  3.84  2.31
##  3 0.23  Good      E     VS1      56.9    65   327  4.05  4.07  2.31
##  4 0.290 Premium   I     VS2      62.4    58   334  4.2   4.23  2.63
##  5 0.31  Good      J     SI2      63.3    58   335  4.34  4.35  2.75
##  6 0.24  Very Good J     VVS2     62.8    57   336  3.94  3.96  2.48
##  7 0.24  Very Good I     VVS1     62.3    57   336  3.95  3.98  2.47
##  8 0.26  Very Good H     SI1      61.9    55   337  4.07  4.11  2.53
##  9 0.22  Fair      E     VS2      65.1    61   337  3.87  3.78  2.49
## 10 0.23  Very Good H     VS1      59.4    61   338  4     4.05  2.39
## # … with 53,930 more rows
…
If you would like to remove this grouping structure meta-data, we can pipe the resulting data frame into the  ungroup() function:

diamonds %>% 
  group_by(cut) %>% 
  ungroup()

## # A tibble: 53,940 x 10
##    carat cut       color clarity depth table price     x     y     z
##    <dbl> <ord>     <ord> <ord>   <dbl> <dbl> <int> <dbl> <dbl> <dbl>
##  1 0.23  Ideal     E     SI2      61.5    55   326  3.95  3.98  2.43
##  2 0.21  Premium   E     SI1      59.8    61   326  3.89  3.84  2.31
##  3 0.23  Good      E     VS1      56.9    65   327  4.05  4.07  2.31
##  4 0.290 Premium   I     VS2      62.4    58   334  4.2   4.23  2.63
##  5 0.31  Good      J     SI2      63.3    58   335  4.34  4.35  2.75
##  6 0.24  Very Good J     VVS2     62.8    57   336  3.94  3.96  2.48
##  7 0.24  Very Good I     VVS1     62.3    57   336  3.95  3.98  2.47
##  8 0.26  Very Good H     SI1      61.9    55   337  4.07  4.11  2.53
##  9 0.22  Fair      E     VS2      65.1    61   337  3.87  3.78  2.49
## 10 0.23  Very Good H     VS1      59.4    61   338  4     4.05  2.39
## # … with 53,930 more rows
…
We see that Newark ("EWR") had the most flights departing in 2013 followed by "JFK" and lastly by LaGuardia ("LGA"). Note there is a subtle but important difference between sum() and n(); while sum() returns the sum of a numerical variable, n() returns a count of the number of rows/observations.

2.4.1 Grouping by more than one variable

You are not limited to grouping by one variable. Say you want to know the number of flights leaving each of the three New York City airports for each month. We can also group by a second variable month using group_by(origin, month):

by_origin_monthly <- flights %>% 
  group_by(origin, month) %>% 
  summarize(count = n())
by_origin_monthly

## # A tibble: 36 x 3
## # Groups:   origin [3]
##    origin month count
##    <chr>  <int> <int>
##  1 EWR        1  9893
##  2 EWR        2  9107
##  3 EWR        3 10420
##  4 EWR        4 10531
##  5 EWR        5 10592
##  6 EWR        6 10175
##  7 EWR        7 10475
##  8 EWR        8 10359
##  9 EWR        9  9550
## 10 EWR       10 10104
## # … with 26 more rows
…
2.6 arrange and sort rows

One of the most commonly performed data wrangling tasks is to sort a data frame’s rows in the alphanumeric order of one of the variables. The dplyr package’s arrange() function  allows us to sort/reorder a data frame’s rows according to the values of the specified variable.

Suppose we are interested in determining the most frequent destination airports for all domestic flights departing from New York City in 2013:

freq_dest <- flights %>% 
  group_by(dest) %>% 
  summarize(num_flights = n())
freq_dest

## # A tibble: 105 x 2
##    dest  num_flights
##    <chr>       <int>
##  1 ABQ           254
##  2 ACK           265
##  3 ALB           439
##  4 ANC             8
##  5 ATL         17215
##  6 AUS          2439
##  7 AVL           275
##  8 BDL           443
##  9 BGR           375
## 10 BHM           297
## # … with 95 more rows

Observe that by default the rows of the resulting freq_dest data frame are sorted in alphabetical order of destination. Say instead we would like to see the same data, but sorted from the most to the least number of flights (num_flights) instead:

freq_dest %>% 
  arrange(num_flights)

## # A tibble: 105 x 2
##    dest  num_flights
##    <chr>       <int>
##  1 LEX             1
##  2 LGA             1
##  3 ANC             8
##  4 SBN            10
##  5 HDN            15
##  6 MTJ            15
##  7 EYW            17
##  8 PSP            19
##  9 JAC            25
## 10 BZN            36
## # … with 95 more rows

This is, however, the opposite of what we want. The rows are sorted with the least frequent destination airports displayed first. This is because arrange() always returns rows sorted in ascending order by default. To switch the ordering to be in “descending” order instead, we use the desc()  function as so:

freq_dest %>% 
  arrange(desc(num_flights))

## # A tibble: 105 x 2
##    dest  num_flights
##    <chr>       <int>
##  1 ORD         17283
##  2 ATL         17215
##  3 LAX         16174
##  4 BOS         15508
##  5 MCO         14082
##  6 CLT         14064
##  7 SFO         13331
##  8 FLL         12055
##  9 MIA         11728
## 10 DCA          9705
## # … with 95 more rows
…
life_exp <- gapminder %>%
  select(country, year, lifeExp)

pop <- gapminder %>%
  arrange(year) %>% 
  select(pop)
  
gdp_percap <- gapminder %>% 
  arrange(pop) %>% 
  select(gdpPercap)

(gapminder_garbage <- bind_cols(life_exp, pop, gdp_percap))

## # A tibble: 1,704 x 5
##    country      year lifeExp      pop gdpPercap
##    <fct>       <int>   <dbl>    <int>     <dbl>
##  1 Afghanistan  1952    28.8  8425333      880.
##  2 Afghanistan  1957    30.3  1282697      861.
##  3 Afghanistan  1962    32.0  9279525     2670.
##  4 Afghanistan  1967    34.0  4232095     1072.
##  5 Afghanistan  1972    36.1 17876956     1385.
##  6 Afghanistan  1977    38.4  8691212     2865.
##  7 Afghanistan  1982    39.9  6927772     1533.
##  8 Afghanistan  1987    40.8   120447     1738.
##  9 Afghanistan  1992    41.7 46886859     3021.
## 10 Afghanistan  1997    41.8  8730405     1890.
## # … with 1,694 more rows
…
The most recent release of gapminder includes a new data frame, country_codes, with country names and ISO codes. Therefore you can also use it to practice joins.

gapminder %>% 
  select(country, continent) %>% 
  group_by(country) %>% 
  slice(1) %>% 
  left_join(country_codes)

## Joining, by = "country"

## Warning: Column `country` joining factor and character vector, coercing into
## character vector

## # A tibble: 142 x 4
## # Groups:   country [142]
##    country     continent iso_alpha iso_num
##    <chr>       <fct>     <chr>       <int>
##  1 Afghanistan Asia      AFG             4
##  2 Albania     Europe    ALB             8
##  3 Algeria     Africa    DZA            12
##  4 Angola      Africa    AGO            24
##  5 Argentina   Americas  ARG            32
##  6 Australia   Oceania   AUS            36
##  7 Austria     Europe    AUT            40
##  8 Bahrain     Asia      BHR            48
##  9 Bangladesh  Asia      BGD            50
## 10 Belgium     Europe    BEL            56
## # … with 132 more rows
…
flights_with_airport_names <- flights %>% 
  inner_join(airports, by = c("dest" = "faa"))
View(flights_with_airport_names)

Let’s construct the chain of pipe operators %>% that computes the number of flights from NYC to each destination, but also includes information about each destination airport:

named_dests <- flights %>%
  group_by(dest) %>%
  summarize(num_flights = n()) %>%
  arrange(desc(num_flights)) %>%
  inner_join(airports, by = c("dest" = "faa")) %>%
  rename(airport_name = name)
named_dests

## # A tibble: 101 x 9
##    dest  num_flights airport_name          lat    lon   alt    tz dst   tzone   
##    <chr>       <int> <chr>               <dbl>  <dbl> <dbl> <dbl> <chr> <chr>   
##  1 ORD         17283 Chicago Ohare Intl   42.0  -87.9   668    -6 A     America…
##  2 ATL         17215 Hartsfield Jackson…  33.6  -84.4  1026    -5 A     America…
##  3 LAX         16174 Los Angeles Intl     33.9 -118.    126    -8 A     America…
##  4 BOS         15508 General Edward Law…  42.4  -71.0    19    -5 A     America…
##  5 MCO         14082 Orlando Intl         28.4  -81.3    96    -5 A     America…
##  6 CLT         14064 Charlotte Douglas …  35.2  -80.9   748    -5 A     America…
##  7 SFO         13331 San Francisco Intl   37.6 -122.     13    -8 A     America…
##  8 FLL         12055 Fort Lauderdale Ho…  26.1  -80.2     9    -5 A     America…
##  9 MIA         11728 Miami Intl           25.8  -80.3     8    -5 A     America…
## 10 DCA          9705 Ronald Reagan Wash…  38.9  -77.0    15    -5 A     America…
## # … with 91 more rows
…
Values for each line are separated with commas. In other words, the values of different variables are separated by commas in each row.

The first line is often, but not always, a header row indicating the names of the columns/variables.

Second, an Excel .xlsx spreadsheet file. This format is based on Microsoft’s proprietary Excel software. As opposed to bare-bones .csv files, .xlsx Excel files contain a lot of meta-data (data about data). Recall we saw a previous example of meta-data in Section 2.4 when adding “group structure” meta-data to a data frame by using the group_by() verb. Some examples of Excel spreadsheet meta-data include the use of bold and italic fonts, colored cells, different column widths, and formula macros.

Third, a Google Sheets file, which is a “cloud” or online-based way to work with a spreadsheet. Google Sheets allows you to download your data in both comma separated values .csv and Excel .xlsx formats. To import Google Sheets data in R use the googlesheets4 package.

Let’s import a Comma Separated Values .csv file that exists on the internet. The .csv file dem_score.csv contains ratings of the level of democracy in different countries spanning 1952 to 1992 and is accessible at https://moderndive.com/data/dem_score.csv. Let’s use the read_csv() function from the readr  (Wickham, Hester, and Francois 2018) package to read it off the web, import it into R, and save it in a data frame called dem_score.

library(readr)
dem_score <- read_csv("https://moderndive.com/data/dem_score.csv")
dem_score

## # A tibble: 96 x 10
##    country    `1952` `1957` `1962` `1967` `1972` `1977` `1982` `1987` `1992`
##    <chr>       <dbl>  <dbl>  <dbl>  <dbl>  <dbl>  <dbl>  <dbl>  <dbl>  <dbl>
##  1 Albania        -9     -9     -9     -9     -9     -9     -9     -9      5
##  2 Argentina      -9     -1     -1     -9     -9     -9     -8      8      7
##  3 Armenia        -9     -7     -7     -7     -7     -7     -7     -7      7
##  4 Australia      10     10     10     10     10     10     10     10     10
##  5 Austria        10     10     10     10     10     10     10     10     10
##  6 Azerbaijan     -9     -7     -7     -7     -7     -7     -7     -7      1
##  7 Belarus        -9     -7     -7     -7     -7     -7     -7     -7      7
##  8 Belgium        10     10     10     10     10     10     10     10     10
##  9 Bhutan        -10    -10    -10    -10    -10    -10    -10    -10    -10
## 10 Bolivia        -4     -3     -3     -4     -7     -7      8      9      9
## # … with 86 more rows
…
library(jsonlite)
citi_bike <- fromJSON("http://citibikenyc.com/stations/json")

This downloads a list. The first argument tells you when you downloaded it:

citi_bike$executionTime

## [1] "2020-05-07 10:58:27 PM"

and the second is a data table:

citi_bike$stationBeanList %>% as_tibble() 

## # A tibble: 943 x 18
##       id stationName availableDocks totalDocks latitude longitude statusValue
##    <int> <chr>                <int>      <int>    <dbl>     <dbl> <chr>      
##  1    72 W 52 St & …             25         55     40.8     -74.0 In Service 
##  2    79 Franklin S…             18         33     40.7     -74.0 In Service 
##  3    82 St James P…             10         27     40.7     -74.0 In Service 
##  4    83 Atlantic A…             16         62     40.7     -74.0 In Service 
##  5   116 W 17 St & …             30         50     40.7     -74.0 In Service 
##  6   119 Park Ave &…              8         19     40.7     -74.0 In Service 
##  7   120 Lexington …             18         19     40.7     -74.0 In Service 
##  8   127 Barrow St …              4         31     40.7     -74.0 In Service 
##  9   128 MacDougal …              1         30     40.7     -74.0 In Service 
## 10   143 Clinton St…              9         24     40.7     -74.0 In Service 
## # … with 933 more rows, and 11 more variables: statusKey <int>,
## #   availableBikes <int>, stAddress1 <chr>, stAddress2 <chr>, city <chr>,
## #   postalCode <chr>, location <chr>, altitude <chr>, testStation <lgl>,
## #   lastCommunicationTime <chr>, landMark <chr>
…
