Chapter 5 Tidy | Preceptor’s Primer for Bayesian Data Science
…
Second, an Excel .xlsx spreadsheet file. This format is based on Microsoft’s proprietary Excel software. As opposed to bare-bones .csv files, .xlsx Excel files contain a lot of meta-data (data about data). Recall we saw a previous example of meta-data in Section 4.4 when adding “group structure” meta-data to a data frame by using the group_by() verb. Some examples of Excel spreadsheet meta-data include the use of bold and italic fonts, colored cells, different column widths, and formula macros.

Third, a Google Sheets file, which is a “cloud” or online-based way to work with a spreadsheet. Google Sheets allows you to download your data in both comma separated values .csv and Excel .xlsx formats. One way to import Google Sheets data in R is to go to the Google Sheets menu bar -> File -> Download as -> Select “Microsoft Excel” or “Comma-separated values” and then load that data into R. A more advanced way to import Google Sheets data in R is by using the googlesheets package, a method we leave to a more advanced data science book.

We’ll cover two methods for importing .csv and .xlsx spreadsheet data in R: one using the console and the other using RStudio’s graphical user interface, abbreviated as “GUI.”

5.1.1 Using the console

First, let’s import a Comma Separated Values .csv file that exists on the internet. The .csv file dem_score.csv contains ratings of the level of democracy in different countries spanning 1952 to 1992 and is accessible at https://moderndive.com/data/dem_score.csv. Let’s use the read_csv() function from the readr  (Wickham, Hester, and Francois 2018) package to read it off the web, import it into R, and save it in a data frame called dem_score.

library(readr)
dem_score <- read_csv("https://moderndive.com/data/dem_score.csv")
dem_score

# A tibble: 96 x 10
   country    `1952` `1957` `1962` `1967` `1972` `1977` `1982` `1987` `1992`
   <chr>       <dbl>  <dbl>  <dbl>  <dbl>  <dbl>  <dbl>  <dbl>  <dbl>  <dbl>
 1 Albania        -9     -9     -9     -9     -9     -9     -9     -9      5
 2 Argentina      -9     -1     -1     -9     -9     -9     -8      8      7
 3 Armenia        -9     -7     -7     -7     -7     -7     -7     -7      7
 4 Australia      10     10     10     10     10     10     10     10     10
 5 Austria        10     10     10     10     10     10     10     10     10
 6 Azerbaijan     -9     -7     -7     -7     -7     -7     -7     -7      1
 7 Belarus        -9     -7     -7     -7     -7     -7     -7     -7      7
 8 Belgium        10     10     10     10     10     10     10     10     10
 9 Bhutan        -10    -10    -10    -10    -10    -10    -10    -10    -10
10 Bolivia        -4     -3     -3     -4     -7     -7      8      9      9
# … with 86 more rows
…
library(jsonlite)
citi_bike <- fromJSON("http://citibikenyc.com/stations/json")

This downloads a list. The first argument tells you when you downloaded it:

citi_bike$executionTime

[1] "2020-01-24 06:27:06 PM"

and the second is a data table:

citi_bike$stationBeanList %>% as_tibble() 

# A tibble: 935 x 18
      id stationName availableDocks totalDocks latitude longitude statusValue
   <int> <chr>                <int>      <int>    <dbl>     <dbl> <chr>      
 1   304 Broadway &…             12         33     40.7     -74.0 In Service 
 2   359 E 47 St & …             56         64     40.8     -74.0 In Service 
 3   367 E 53 St & …              3         34     40.8     -74.0 In Service 
 4   402 Broadway &…             22         39     40.7     -74.0 In Service 
 5  3255 8 Ave & W …             16         19     40.8     -74.0 In Service 
 6  3443 W 52 St & …              5         41     40.8     -74.0 In Service 
 7    72 W 52 St & …             38         55     40.8     -74.0 In Service 
 8    79 Franklin S…             10         33     40.7     -74.0 In Service 
 9    82 St James P…              3         27     40.7     -74.0 In Service 
10    83 Atlantic A…              8         62     40.7     -74.0 In Service 
# … with 925 more rows, and 11 more variables: statusKey <int>,
#   availableBikes <int>, stAddress1 <chr>, stAddress2 <chr>, city <chr>,
#   postalCode <chr>, location <chr>, altitude <chr>, testStation <lgl>,
#   lastCommunicationTime <chr>, landMark <chr>
…
