Chapter 6 Sampling | Preceptor’s Primer for Bayesian Data Science
…
At the low end, one group removed 50 balls from the urn with proportion red between 0.20 and 0.25.

At the high end, another group removed 50 balls from the urn with proportion between 0.45 and 0.5 red.

However, the most frequently occurring proportions were between 0.30 and 0.35 red, right in the middle of the distribution.

The shape of this distribution is somewhat bell-shaped.

Let’s construct this same hand-drawn histogram in R using your data visualization skills that you honed in Chapter 1. The 33 groups of friends’ results are saved in the tactile_prop_red data frame included in the moderndive package. Run the following to display the first 10 of 33 rows:

library(moderndive)

tactile_prop_red

# A tibble: 33 x 4
   group            replicate red_balls prop_red
   <chr>                <int>     <int>    <dbl>
 1 Ilyas, Yohan             1        21     0.42
 2 Morgan, Terrance         2        17     0.34
 3 Martin, Thomas           3        21     0.42
 4 Clark, Frank             4        21     0.42
 5 Riddhi, Karina           5        18     0.36
 6 Andrew, Tyler            6        19     0.38
 7 Julia                    7        19     0.38
 8 Rachel, Lauren           8        11     0.22
 9 Daniel, Caroline         9        15     0.3 
10 Josh, Maeve             10        17     0.34
# … with 23 more rows
…
# sample_frac() just re-arranges the rows of the tibble. We use set.seed() to
# ensure that the beads in the urn are always in the same order. This ensures
# that figures in the book match their written descriptions.

set.seed(9)

urn <- tibble(color = c(rep("red", 900), rep("white", 1500))) %>%
  sample_frac() %>% 
  mutate(ball_ID = 1:2400) %>% 
  select(ball_ID, color)

urn  

# A tibble: 2,400 x 2
   ball_ID color
     <int> <chr>
 1       1 white
 2       2 white
 3       3 white
 4       4 white
 5       5 red  
 6       6 red  
 7       7 white
 8       8 red  
 9       9 red  
10      10 red  
# … with 2,390 more rows
…
fruit_basket %>% 
  rep_sample_n(size = 6)

Error in sample.int(n, size, replace = replace, prob = prob) : 
  cannot take a sample larger than the population when 'replace = FALSE'

We get an error message telling us that we cannot take a sample that has more rows than the original data frame. This is because rep_sample_n() by defaults samples without replacement. Once it samples a fruit from the basket, it does not put it back in.

library(infer)

virtual_shovel <- urn %>% 
  rep_sample_n(size = 50)
virtual_shovel

# A tibble: 50 x 3
# Groups:   replicate [1]
   replicate ball_ID color
       <int>   <int> <chr>
 1         1    1152 white
 2         1     716 white
 3         1     667 red  
 4         1     773 red  
 5         1      91 white
 6         1     896 red  
 7         1    2104 white
 8         1    2276 white
 9         1     410 white
10         1     832 white
# … with 40 more rows

Observe that virtual_shovel has 50 rows corresponding to our virtual sample of size 50. The ball_ID variable identifies which of the 2400 balls from urn are included in our sample of 50 balls while color denotes its color. However, what does the replicate variable indicate? In virtual_shovel’s case, replicate is equal to 1 for all 50 rows. This is telling us that these 50 rows correspond to the first repeated/replicated use of the shovel, in our case our first sample. We’ll see shortly that when we “virtually” take 33 samples, replicate will take values between 1 and 33.

Let’s compute the proportion of balls in our virtual sample that are red using the dplyr data wrangling verbs you learned in Chapter 2. First, for each of our 50 sampled balls, let’s identify if it is red or not using a test for equality with ==. Let’s create a new Boolean variable is_red using the mutate() function from Section 2.5:

virtual_shovel %>% 
  mutate(is_red = (color == "red"))

# A tibble: 50 x 4
# Groups:   replicate [1]
   replicate ball_ID color is_red
       <int>   <int> <chr> <lgl> 
 1         1    1152 white FALSE 
 2         1     716 white FALSE 
 3         1     667 red   TRUE  
 4         1     773 red   TRUE  
 5         1      91 white FALSE 
 6         1     896 red   TRUE  
 7         1    2104 white FALSE 
 8         1    2276 white FALSE 
 9         1     410 white FALSE 
10         1     832 white FALSE 
# … with 40 more rows
…
Great! 26% of virtual_shovel’s 50 balls were red! So based on this particular sample of 50 balls, our guess at the proportion of the urn’s balls that are red is 26%. But remember from our earlier tactile sampling activity that if we repeat this sampling, we will not necessarily obtain the same value of 26% again. There will likely be some variation. In fact, our 33 groups of friends computed 33 such proportions whose distribution we visualized in Figure 6.6. We saw that these estimates varied. Let’s now perform the virtual analog of having 33 groups of students use the sampling shovel!

6.2.2 Using the virtual shovel 33 times

Recall that in our tactile sampling exercise in Section 6.1, we had 33 groups of students each use the shovel, yielding 33 samples of size 50 balls. We then used these 33 samples to compute 33 proportions. In other words, we repeated/replicated using the shovel 33 times. We can perform this repeated/replicated sampling virtually by once again using our virtual shovel function rep_sample_n(), but by adding the reps = 33 argument. This is telling R that we want to repeat the sampling 33 times.

We’ll save these results in a data frame called virtual_samples. While we provide a preview of the first 10 rows of virtual_samples in what follows, we highly suggest you scroll through its contents using RStudio’s spreadsheet viewer by running View(virtual_samples).

virtual_samples <- urn %>% 
  rep_sample_n(size = 50, reps = 33)
virtual_samples

# A tibble: 1,650 x 3
# Groups:   replicate [33]
   replicate ball_ID color
       <int>   <int> <chr>
 1         1    2143 white
 2         1    2347 white
 3         1    2005 white
 4         1    1912 white
 5         1    1068 white
 6         1    2322 red  
 7         1    1241 white
 8         1     676 white
 9         1    2007 red  
10         1    1698 red  
# … with 1,640 more rows

Observe in the spreadsheet viewer that the first 50 rows of replicate are equal to 1 while the next 50 rows of replicate are equal to 2. This is telling us that the first 50 rows correspond to the first sample of 50 balls while the next 50 rows correspond to the second sample of 50 balls. This pattern continues for all reps = 33 replicates and thus virtual_samples has 33 \(\cdot\) 50 = 1650 rows.

Let’s now take virtual_samples and compute the resulting 33 proportions red. We’ll use the same dplyr verbs as before, but this time with an additional group_by() of the replicate variable. Recall from Section 2.4 that by assigning the grouping variable “meta-data” before we summarize(), we’ll obtain 33 different proportions red. We display a preview of the first 10 out of 33 rows:

virtual_prop_red <- virtual_samples %>% 
  group_by(replicate) %>% 
  summarize(red = sum(color == "red")) %>% 
  mutate(prop_red = red / 50)
virtual_prop_red

# A tibble: 33 x 3
   replicate   red prop_red
       <int> <int>    <dbl>
 1         1    16     0.32
 2         2    22     0.44
 3         3    18     0.36
 4         4    18     0.36
 5         5    14     0.28
 6         6    15     0.3 
 7         7    26     0.52
 8         8    23     0.46
 9         9    21     0.42
10        10    18     0.36
# … with 23 more rows
…
FIGURE 6.9: Comparing 33 virtual and 33 tactile proportions red.

6.2.3 Using the virtual shovel 1,000 times

Now say we want to study the effects of sampling variation not for 33 samples, but rather for a larger number of samples, say 1,000. We have two choices at this point. We could have our groups of friends manually take 1,000 samples of 50 balls and compute the corresponding 1,000 proportions. However, this would be a tedious and time-consuming task. This is where computers excel: automating long and repetitive tasks while performing them quite quickly. Thus, at this point we will abandon tactile sampling in favor of only virtual sampling. Let’s once again use the rep_sample_n() function with sample size set to be 50 once again, but this time with the number of replicates reps set to 1000. Be sure to scroll through the contents of virtual_samples in RStudio’s viewer.

virtual_samples <- urn %>% 
  rep_sample_n(size = 50, reps = 1000)
virtual_samples

# A tibble: 50,000 x 3
# Groups:   replicate [1,000]
   replicate ball_ID color
       <int>   <int> <chr>
 1         1     824 white
 2         1    1906 red  
 3         1     344 white
 4         1    1598 red  
 5         1    1869 white
 6         1     934 red  
 7         1      39 red  
 8         1     696 white
 9         1      13 white
10         1     747 white
# … with 49,990 more rows

Observe that now virtual_samples has 1,000 \(\cdot\) 50 = 50,000 rows, instead of the 33 \(\cdot\) 50 = 1650 rows from earlier. Using the same data wrangling code as earlier, let’s take the data frame virtual_samples with 1,000 \(\cdot\) 50 = 50,000 rows and compute the resulting 1,000 proportions of red balls.

virtual_prop_red <- virtual_samples %>% 
  group_by(replicate) %>% 
  summarize(red = sum(color == "red")) %>% 
  mutate(prop_red = red / 50)
virtual_prop_red

# A tibble: 1,000 x 3
   replicate   red prop_red
       <int> <int>    <dbl>
 1         1    23     0.46
 2         2    17     0.34
 3         3    19     0.38
 4         4    20     0.4 
 5         5    16     0.32
 6         6    19     0.38
 7         7    21     0.42
 8         8    17     0.34
 9         9    18     0.36
10        10    22     0.44
# … with 990 more rows
…
We will break this into two functions, one called use_shovel() which will use a shovel of the specified size, and another called prop_red() which will calculate the proportion of red for a shovel of the specified size.

First, let’s create use_shovel()

use_shovel <- function(x, size, reps) {
  x %>% rep_sample_n(size = size, reps = reps)
}

use_shovel(x = urn, size = 25, reps = 1000)

# A tibble: 25,000 x 3
# Groups:   replicate [1,000]
   replicate ball_ID color
       <int>   <int> <chr>
 1         1    1304 white
 2         1    1166 red  
 3         1     753 red  
 4         1    1343 red  
 5         1     593 white
 6         1    1810 white
 7         1     671 white
 8         1    2274 red  
 9         1    1288 red  
10         1    1790 white
# … with 24,990 more rows

See that we now can create the object virtual_samples_25 with the code virtual_samples_25 <- use_shovel(x = urn, size = 25, reps = 1000). This is far more succinct than our previous code, and it allows us to use a shovel of any size we’d like.

Now, we can use our use_shovel() function to develop another function, prop_red():

prop_red <- function(x, size, reps) {
  use_shovel(x = x, size = size, reps = reps) %>%
    group_by(replicate) %>%
    summarize(red = sum(color == "red")) %>%
    mutate(prop_red = red / size)
}

prop_red(x = urn, size = 25, reps = 1000)

# A tibble: 1,000 x 3
   replicate   red prop_red
       <int> <int>    <dbl>
 1         1     7     0.28
 2         2    14     0.56
 3         3    10     0.4 
 4         4    10     0.4 
 5         5    10     0.4 
 6         6    12     0.48
 7         7     8     0.32
 8         8     9     0.36
 9         9    12     0.48
10        10     3     0.12
# … with 990 more rows
…
