2.9 Combining Data | Preceptor’s Primer for Bayesian Data Science
…
life_exp <- gapminder %>%
  select(country, year, lifeExp)

pop <- gapminder %>%
  arrange(year) %>% 
  select(pop)
  
gdp_percap <- gapminder %>% 
  arrange(pop) %>% 
  select(gdpPercap)

(gapminder_garbage <- bind_cols(life_exp, pop, gdp_percap))

## # A tibble: 1,704 x 5
##    country      year lifeExp      pop gdpPercap
##    <fct>       <int>   <dbl>    <int>     <dbl>
##  1 Afghanistan  1952    28.8  8425333      880.
##  2 Afghanistan  1957    30.3  1282697      861.
##  3 Afghanistan  1962    32.0  9279525     2670.
##  4 Afghanistan  1967    34.0  4232095     1072.
##  5 Afghanistan  1972    36.1 17876956     1385.
##  6 Afghanistan  1977    38.4  8691212     2865.
##  7 Afghanistan  1982    39.9  6927772     1533.
##  8 Afghanistan  1987    40.8   120447     1738.
##  9 Afghanistan  1992    41.7 46886859     3021.
## 10 Afghanistan  1997    41.8  8730405     1890.
## # … with 1,694 more rows
…
The most recent release of gapminder includes a new data frame, country_codes, with country names and ISO codes. Therefore you can also use it to practice joins.

gapminder %>% 
  select(country, continent) %>% 
  group_by(country) %>% 
  slice(1) %>% 
  left_join(country_codes)

## Joining, by = "country"

## Warning: Column `country` joining factor and character vector, coercing into
## character vector

## # A tibble: 142 x 4
## # Groups:   country [142]
##    country     continent iso_alpha iso_num
##    <chr>       <fct>     <chr>       <int>
##  1 Afghanistan Asia      AFG             4
##  2 Albania     Europe    ALB             8
##  3 Algeria     Africa    DZA            12
##  4 Angola      Africa    AGO            24
##  5 Argentina   Americas  ARG            32
##  6 Australia   Oceania   AUS            36
##  7 Austria     Europe    AUT            40
##  8 Bahrain     Asia      BHR            48
##  9 Bangladesh  Asia      BGD            50
## 10 Belgium     Europe    BEL            56
## # … with 132 more rows
…
flights_with_airport_names <- flights %>% 
  inner_join(airports, by = c("dest" = "faa"))
View(flights_with_airport_names)

Let’s construct the chain of pipe operators %>% that computes the number of flights from NYC to each destination, but also includes information about each destination airport:

named_dests <- flights %>%
  group_by(dest) %>%
  summarize(num_flights = n()) %>%
  arrange(desc(num_flights)) %>%
  inner_join(airports, by = c("dest" = "faa")) %>%
  rename(airport_name = name)
named_dests

## # A tibble: 101 x 9
##    dest  num_flights airport_name          lat    lon   alt    tz dst   tzone   
##    <chr>       <int> <chr>               <dbl>  <dbl> <dbl> <dbl> <chr> <chr>   
##  1 ORD         17283 Chicago Ohare Intl   42.0  -87.9   668    -6 A     America…
##  2 ATL         17215 Hartsfield Jackson…  33.6  -84.4  1026    -5 A     America…
##  3 LAX         16174 Los Angeles Intl     33.9 -118.    126    -8 A     America…
##  4 BOS         15508 General Edward Law…  42.4  -71.0    19    -5 A     America…
##  5 MCO         14082 Orlando Intl         28.4  -81.3    96    -5 A     America…
##  6 CLT         14064 Charlotte Douglas …  35.2  -80.9   748    -5 A     America…
##  7 SFO         13331 San Francisco Intl   37.6 -122.     13    -8 A     America…
##  8 FLL         12055 Fort Lauderdale Ho…  26.1  -80.2     9    -5 A     America…
##  9 MIA         11728 Miami Intl           25.8  -80.3     8    -5 A     America…
## 10 DCA          9705 Ronald Reagan Wash…  38.9  -77.0    15    -5 A     America…
## # … with 91 more rows
…
