Chapter 11 Continuous Response | Gov 50: Data
…
ideology a continuous variable with 1 corresponding to strongly Democrat and 7 corresponding to strongly Republican and 0 if NA.

If we were given a new person who was not surveyed, and the above variables, our goal is to predict their ideology correctly.

As you also saw, there are a lot of data points in this dataset. nes covers 1954 through 2016, but for our sake, we will narrow our scope to just 2016. Because of the changing nature of what makes someone ideologically liberal or ideologically conservative over time, it is best to construct a model in which we eliminate as much of this variance as possible. Keep in mind that, when feeding in new data to our model, it is most accurately applied to voters in or around 2016. Indeed, a 1954 voter might act very differently than a 2016 voter.

Filter the data to only show year == 2016.

library(tidyverse)
nes %>%
  select(year, state, gender, race, income, age, education, ideology) %>%
  filter(year == 2016)

## # A tibble: 4,270 x 8
##     year state gender race  income   age     education       ideology
##    <int> <chr> <chr>  <chr> <ord>    <ord>   <ord>              <int>
##  1  2016 LA    Male   White 34 - 67  25 - 34 Highschool             3
##  2  2016 AR    Male   White 34 - 67  25 - 34 College                2
##  3  2016 MS    Male   White 17 - 33  17 - 24 Highschool            -1
##  4  2016 TN    Male   White 68 - 95  55 - 64 Highschool             1
##  5  2016 OH    Female White 0 - 16   35 - 44 Highschool            -1
##  6  2016 NJ    Male   White 0 - 16   55 - 64 Adv. Degree            1
##  7  2016 NY    Male   Black 68 - 95  55 - 64 Some Highschool       -3
##  8  2016 NJ    Female White 96 - 100 55 - 64 Highschool             0
##  9  2016 TX    Male   Other 34 - 67  45 - 54 Highschool             1
## 10  2016 MS    Female White 34 - 67  25 - 34 Some College          -1
## # … with 4,260 more rows

Note from our previous skimming of the data that all of the variables are incomplete, meaning they contain NA values. While there are methods to impute missing data, we will simply remove these values for now. We will save this filtered and cleaned dataset as nes_2016.

nes_2016 <- nes %>%
  filter(year == 2016) %>%
  select(-year) %>%
  drop_na()

nes_2016

## # A tibble: 3,433 x 9
##    state gender income   age     education       race  ideology pres_appr  voted
##    <chr> <chr>  <ord>    <ord>   <ord>           <chr>    <int> <chr>      <chr>
##  1 LA    Male   34 - 67  25 - 34 Highschool      White        3 Disapprove Yes  
##  2 AR    Male   34 - 67  25 - 34 College         White        2 Disapprove Yes  
##  3 MS    Male   17 - 33  17 - 24 Highschool      White       -1 Disapprove No   
##  4 TN    Male   68 - 95  55 - 64 Highschool      White        1 Disapprove Yes  
##  5 OH    Female 0 - 16   35 - 44 Highschool      White       -1 Disapprove Yes  
##  6 NJ    Male   0 - 16   55 - 64 Adv. Degree     White        1 Disapprove Yes  
##  7 NY    Male   68 - 95  55 - 64 Some Highschool Black       -3 Approve    Yes  
##  8 NJ    Female 96 - 100 55 - 64 Highschool      White        0 Disapprove Yes  
##  9 TX    Male   34 - 67  45 - 54 Highschool      Other        1 Disapprove No   
## 10 MS    Female 34 - 67  25 - 34 Some College    White       -1 Approve    Yes  
## # … with 3,423 more rows
…
Here, we are using the parsnip package to create an engine that can run this linear regression model easily and repeatedly. linear_reg() tells the engine that this is a linear regression. set_engine("lm") tells the engine to use the lm() function. set_mode() has to options, “regression” and “classification”. Since our left-hand variable is a continuous one, we will set it to “regression”. If it were categorical, we would set the mode to “classification”.

Fit the model to the data. We will first create a regression formula and save it as an R object for future recall. There are a lot of different combinations we could use for the formula, but which will yield the best model? In previous chapters, we discussed this dilemma. For now, we will build a full model containing all of the predictor variables and some interactions.

interact_form <- formula(ideology ~ gender * race + state * income + age + education)

fit(lm_model, interact_form, ch11_training)

Note that we can use tidy(), just like we did in previous chapters, to take a look at the results:

fit(lm_model, interact_form, ch11_training) %>%
  tidy(conf.int = TRUE) %>%
  select(term, estimate, conf.low, conf.high)

## # A tibble: 279 x 4
##    term                estimate conf.low conf.high
##    <chr>                  <dbl>    <dbl>     <dbl>
##  1 (Intercept)            3.06   -3.24       9.36 
##  2 genderMale             0.924  -0.0137     1.86 
##  3 genderOther           -1.11   -2.96       0.742
##  4 raceBlack             -1.62   -2.43      -0.810
##  5 raceHispanic          -0.520  -1.33       0.287
##  6 raceNative American   -0.325  -1.91       1.26 
##  7 raceOther             -0.137  -1.05       0.780
##  8 raceWhite              0.667  -0.0701     1.40 
##  9 stateAL               -3.80  -10.2        2.55 
## 10 stateAR               -4.60  -10.9        1.71 
## # … with 269 more rows
…
Now that we’ve viewed the cross-validation metrics, it’s time to use new data: namely, the testing set. Remember, we only touch the testing set for evaluation purposes. To apply our model to ch11_testing, use the predict() function.

lm_model %>%
  fit(interact_form, data = ch11_training) %>%
  predict(new_data = ch11_testing)

## Warning in predict.lm(object = object$fit, newdata = new_data, type =
## "response"): prediction from a rank-deficient fit may be misleading

## # A tibble: 858 x 1
##     .pred
##     <dbl>
##  1 -2.21 
##  2  0.687
##  3  1.06 
##  4  0.878
##  5 -0.458
##  6  0.567
##  7 -0.456
##  8  0.437
##  9 -2.72 
## 10  0.793
## # … with 848 more rows
…
gender

age

income

It is very similar in rmse value with the Education model, which excludes age and income.

Let’s test the Full model excluding state on the testing set.

lm_model %>%
  fit(non_state_form, data = ch11_training) %>%
  predict(new_data = ch11_testing)

## # A tibble: 858 x 1
##     .pred
##     <dbl>
##  1 -2.31 
##  2  1.46 
##  3  1.44 
##  4  1.51 
##  5  1.21 
##  6  1.11 
##  7  0.639
##  8  1.73 
##  9 -1.99 
## 10  1.64 
## # … with 848 more rows
…
