Chapter 12 Discrete Response | Preceptor’s Primer for Bayesian Data Science
…
Therefore, the predicted probability for an observation in the South is \(\frac{1}{1 + e^{-(0.230 - 0.249)}}\) (0.5) and the predicted probability for an observation outside the South is \(\frac{1}{1 + e^{-(0.230)}}\) (0.56) a difference of -0.06. Thus, an observation being the South is associated with a -0.06 decrease in the predicted probability of a Democratic victory.

Note that you could also estimate this value through the so-called “divide by 4” rule: \(-0.249 / 4 \approx 0.062\). We’ll discuss this further when we talk about interpreting the coefficiences of continuous predictors in logistic regression models.

Let’s now estimate the uncertainty around our coefficients. We’ll start by showing how you can do this through the bootstrap. We’ll begin by loading the infer package. We’re going to use the function rep_sample_n() to resample from our data 1,000 times:

library(infer)

x <- house_ch12 %>% 
  select(dem_win, south) %>% 
  rep_sample_n(size = nrow(house_ch12), replace = TRUE, reps = 1000)

x

## # A tibble: 9,557,000 x 3
## # Groups:   replicate [1,000]
##    replicate dem_win south
##        <int>   <dbl> <dbl>
##  1         1       0     0
##  2         1       1     0
##  3         1       0     0
##  4         1       1     1
##  5         1       0     0
##  6         1       0     0
##  7         1       1     0
##  8         1       1     1
##  9         1       0     0
## 10         1       0     0
## # … with 9,556,990 more rows

For each replicate, we have 9557 resamples of dem_win and south.

Next, we are going to nest() our data by replicate:

x <- x %>% 
  group_by(replicate) %>% 
  nest()

x

## # A tibble: 1,000 x 2
## # Groups:   replicate [1,000]
##    replicate data                
##        <int> <list>              
##  1         1 <tibble [9,557 × 2]>
##  2         2 <tibble [9,557 × 2]>
##  3         3 <tibble [9,557 × 2]>
##  4         4 <tibble [9,557 × 2]>
##  5         5 <tibble [9,557 × 2]>
##  6         6 <tibble [9,557 × 2]>
##  7         7 <tibble [9,557 × 2]>
##  8         8 <tibble [9,557 × 2]>
##  9         9 <tibble [9,557 × 2]>
## 10        10 <tibble [9,557 × 2]>
## # … with 990 more rows

After grouping by replicate and using nest(), we now have a dataset of 1,000 rows and a list column named data. Each element of data is a tibble consisting of one of the resampled datasets we created using rep_sample_n().

Now, we can use map() to run our logistic regression for each dataset:

x <- x %>% 
  mutate(mod = map(data, ~ glm(dem_win ~ south, family = binomial, data = .)))

x

## # A tibble: 1,000 x 3
## # Groups:   replicate [1,000]
##    replicate data                 mod   
##        <int> <list>               <list>
##  1         1 <tibble [9,557 × 2]> <glm> 
##  2         2 <tibble [9,557 × 2]> <glm> 
##  3         3 <tibble [9,557 × 2]> <glm> 
##  4         4 <tibble [9,557 × 2]> <glm> 
##  5         5 <tibble [9,557 × 2]> <glm> 
##  6         6 <tibble [9,557 × 2]> <glm> 
##  7         7 <tibble [9,557 × 2]> <glm> 
##  8         8 <tibble [9,557 × 2]> <glm> 
##  9         9 <tibble [9,557 × 2]> <glm> 
## 10        10 <tibble [9,557 × 2]> <glm> 
## # … with 990 more rows

Now we have a new list column, mod, that contains the model objects created by glm(). We will now want to tidy() the object created by glm():

x <- x %>% 
  mutate(reg_results = map(mod, ~ tidy(.)))

x

## # A tibble: 1,000 x 4
## # Groups:   replicate [1,000]
##    replicate data                 mod    reg_results     
##        <int> <list>               <list> <list>          
##  1         1 <tibble [9,557 × 2]> <glm>  <tibble [2 × 5]>
##  2         2 <tibble [9,557 × 2]> <glm>  <tibble [2 × 5]>
##  3         3 <tibble [9,557 × 2]> <glm>  <tibble [2 × 5]>
##  4         4 <tibble [9,557 × 2]> <glm>  <tibble [2 × 5]>
##  5         5 <tibble [9,557 × 2]> <glm>  <tibble [2 × 5]>
##  6         6 <tibble [9,557 × 2]> <glm>  <tibble [2 × 5]>
##  7         7 <tibble [9,557 × 2]> <glm>  <tibble [2 × 5]>
##  8         8 <tibble [9,557 × 2]> <glm>  <tibble [2 × 5]>
##  9         9 <tibble [9,557 × 2]> <glm>  <tibble [2 × 5]>
## 10        10 <tibble [9,557 × 2]> <glm>  <tibble [2 × 5]>
## # … with 990 more rows

tidy() stores the coefficients in the estimate column, with each coefficient named in the term column. Thus, if we filter() by term and pull(estimate), we can get the logistic regression coefficient for each bootstrap sample:

x <- x %>%
  mutate(disp_coef = map_dbl(reg_results, ~ filter(., term == "south") %>% pull(estimate)))

x

## # A tibble: 1,000 x 5
## # Groups:   replicate [1,000]
##    replicate data                 mod    reg_results      disp_coef
##        <int> <list>               <list> <list>               <dbl>
##  1         1 <tibble [9,557 × 2]> <glm>  <tibble [2 × 5]>    -0.247
##  2         2 <tibble [9,557 × 2]> <glm>  <tibble [2 × 5]>    -0.289
##  3         3 <tibble [9,557 × 2]> <glm>  <tibble [2 × 5]>    -0.205
##  4         4 <tibble [9,557 × 2]> <glm>  <tibble [2 × 5]>    -0.223
##  5         5 <tibble [9,557 × 2]> <glm>  <tibble [2 × 5]>    -0.207
##  6         6 <tibble [9,557 × 2]> <glm>  <tibble [2 × 5]>    -0.201
##  7         7 <tibble [9,557 × 2]> <glm>  <tibble [2 × 5]>    -0.222
##  8         8 <tibble [9,557 × 2]> <glm>  <tibble [2 × 5]>    -0.316
##  9         9 <tibble [9,557 × 2]> <glm>  <tibble [2 × 5]>    -0.248
## 10        10 <tibble [9,557 × 2]> <glm>  <tibble [2 × 5]>    -0.225
## # … with 990 more rows
…
house_logistic <- fit(logistic_mod,
                      factor(dem_win) ~ state * year,
                      data = house_ch12)

house_linear <- fit(linear_reg(),
                    dem_win ~ state * year,
                    data = house_ch12)

Note that fitting a linear regression is as simple as using the model specification linear_reg(), which by default uses lm() as its engine.

How can we extract the predictions for each of these models? tidymodels provides a unified function, predict(). The first argument of the function is the fitted model object. It also requires the argument new_data, which is the dataset on which you will be making your predictions. Here, we are making predictions on our original data (house_ch12). For example:

predict(house_logistic, new_data = house_ch12)

## # A tibble: 9,557 x 1
##    .pred_class
##    <fct>      
##  1 0          
##  2 1          
##  3 1          
##  4 1          
##  5 1          
##  6 1          
##  7 1          
##  8 1          
##  9 1          
## 10 1          
## # … with 9,547 more rows

The result is a tibble with the predicted outcomes stored in the column .pred_class.

For the linear model, the result is going to be a number, not a class:

predict(house_linear, new_data = house_ch12)

## # A tibble: 9,557 x 1
##       .pred
##       <dbl>
##  1 1.00e-11
##  2 7.35e- 1
##  3 7.35e- 1
##  4 7.35e- 1
##  5 7.35e- 1
##  6 7.35e- 1
##  7 7.35e- 1
##  8 7.35e- 1
##  9 7.83e- 1
## 10 7.83e- 1
## # … with 9,547 more rows
…
