4.4 List columns and map_* functions | Preceptor’s Primer for Bayesian Data Science
…
## tibble [2 × 2] (S3: tbl_df/tbl/data.frame)
##  $ col_1: chr [1:2] "Alice and Bob" "Carol and Dan"
##  $ col_2:List of 2
##   ..$ : chr [1:2] "Alice" "Bob"
##   ..$ : chr [1:2] "Carol" "Dan"

After using str_split() within mutate(), we have created a new column, and that new column is a list column.

This is often how we will go about creating list columns. Let’s practice with the gapminder dataset. How could we add a column to the dataset that included the quantiles of the lifeExp variable?

gapminder %>%
  group_by(year) %>%
  mutate(lifeExpQuantile = list(quantile(lifeExp)))

## # A tibble: 1,704 x 7
## # Groups:   year [12]
##    country     continent  year lifeExp      pop gdpPercap lifeExpQuantile
##    <fct>       <fct>     <int>   <dbl>    <int>     <dbl> <list>         
##  1 Afghanistan Asia       1952    28.8  8425333      779. <dbl [5]>      
##  2 Afghanistan Asia       1957    30.3  9240934      821. <dbl [5]>      
##  3 Afghanistan Asia       1962    32.0 10267083      853. <dbl [5]>      
##  4 Afghanistan Asia       1967    34.0 11537966      836. <dbl [5]>      
##  5 Afghanistan Asia       1972    36.1 13079460      740. <dbl [5]>      
##  6 Afghanistan Asia       1977    38.4 14880372      786. <dbl [5]>      
##  7 Afghanistan Asia       1982    39.9 12881816      978. <dbl [5]>      
##  8 Afghanistan Asia       1987    40.8 13867957      852. <dbl [5]>      
##  9 Afghanistan Asia       1992    41.7 16317921      649. <dbl [5]>      
## 10 Afghanistan Asia       1997    41.8 22227415      635. <dbl [5]>      
## # … with 1,694 more rows
…
