11.1 Teaching evaluations revisited: one numerical and one categorical explanatory variable | Preceptor’s Primer for Bayesian Data Science
…
Note that our regression table included the confidence interval bounds generated from tidy(conf.int = TRUE). Let’s reassure ourselves that they are similar to what we would get from the bootstrap samples.

The process is somewhat more involved because we have multiple coefficients around which we would like to construct confidence intervals. It begins the same way as we saw in the last chapter:

library(infer)

evals_ch12 %>%
  rep_sample_n(size = nrow(evals_ch12), reps = 1000, replace = TRUE) %>%
  group_by(replicate) %>%
  nest() %>%
  mutate(mod = map(data, ~ lm(score ~ age * gender, data = .)),
         reg_results = map(mod, ~ tidy(.)))

## # A tibble: 1,000 x 4
## # Groups:   replicate [1,000]
##    replicate data               mod    reg_results     
##        <int> <list>             <list> <list>          
##  1         1 <tibble [463 × 4]> <lm>   <tibble [4 × 5]>
##  2         2 <tibble [463 × 4]> <lm>   <tibble [4 × 5]>
##  3         3 <tibble [463 × 4]> <lm>   <tibble [4 × 5]>
##  4         4 <tibble [463 × 4]> <lm>   <tibble [4 × 5]>
##  5         5 <tibble [463 × 4]> <lm>   <tibble [4 × 5]>
##  6         6 <tibble [463 × 4]> <lm>   <tibble [4 × 5]>
##  7         7 <tibble [463 × 4]> <lm>   <tibble [4 × 5]>
##  8         8 <tibble [463 × 4]> <lm>   <tibble [4 × 5]>
##  9         9 <tibble [463 × 4]> <lm>   <tibble [4 × 5]>
## 10        10 <tibble [463 × 4]> <lm>   <tibble [4 × 5]>
## # … with 990 more rows

Now we could use map_dbl() within our mutate() in order to extract each of the estimates from our model. However, as you add more predictors to a regression, that gets more and more unwieldy. Instead, let’s take advantage of unnest() to reshape our data so that the unit of analysis is a replicate-term:

evals_ch12 %>%
  rep_sample_n(size = nrow(evals_ch12), reps = 1000, replace = TRUE) %>%
  group_by(replicate) %>%
  nest() %>%
  mutate(mod = map(data, ~ lm(score ~ age * gender, data = .)),
         reg_results = map(mod, ~ tidy(.))) %>%
  unnest(reg_results)

## # A tibble: 4,000 x 8
## # Groups:   replicate [1,000]
##    replicate data         mod   term      estimate std.error statistic   p.value
##        <int> <list>       <lis> <chr>        <dbl>     <dbl>     <dbl>     <dbl>
##  1         1 <tibble [46… <lm>  (Interce…   5.12     0.212       24.2  7.33e- 84
##  2         1 <tibble [46… <lm>  age        -0.0215   0.00448     -4.81 2.05e-  6
##  3         1 <tibble [46… <lm>  genderma…  -0.831    0.269       -3.09 2.14e-  3
##  4         1 <tibble [46… <lm>  age:gend…   0.0203   0.00553      3.67 2.71e-  4
##  5         2 <tibble [46… <lm>  (Interce…   5.18     0.178       29.1  2.93e-106
##  6         2 <tibble [46… <lm>  age        -0.0240   0.00395     -6.07 2.64e-  9
##  7         2 <tibble [46… <lm>  genderma…  -0.962    0.240       -4.01 6.95e-  5
##  8         2 <tibble [46… <lm>  age:gend…   0.0245   0.00502      4.89 1.39e-  6
##  9         3 <tibble [46… <lm>  (Interce…   5.02     0.248       20.3  8.52e- 66
## 10         3 <tibble [46… <lm>  age        -0.0204   0.00517     -3.96 8.86e-  5
## # … with 3,990 more rows
…
         # We only care about the term "gendermale":
         
         reg_gendermale = map(reg_results, ~ filter(., term == "gendermale")),
         
         # Now, let's get the estimates and CIs:
         
         estimate = map_dbl(reg_gendermale, ~ pull(., estimate)),
         conf.low = map_dbl(reg_gendermale, ~ pull(., conf.low)),
         conf.high = map_dbl(reg_gendermale, ~ pull(., conf.high)))

gendermale_coefs

## # A tibble: 71 x 7
##     ages mod    reg_results      reg_gendermale   estimate conf.low conf.high
##    <int> <list> <list>           <list>              <dbl>    <dbl>     <dbl>
##  1    20 <lm>   <tibble [4 × 7]> <tibble [1 × 7]>  -0.175    -0.487     0.136
##  2    21 <lm>   <tibble [4 × 7]> <tibble [1 × 7]>  -0.162    -0.463     0.139
##  3    22 <lm>   <tibble [4 × 7]> <tibble [1 × 7]>  -0.148    -0.439     0.143
##  4    23 <lm>   <tibble [4 × 7]> <tibble [1 × 7]>  -0.135    -0.416     0.146
##  5    24 <lm>   <tibble [4 × 7]> <tibble [1 × 7]>  -0.121    -0.392     0.149
##  6    25 <lm>   <tibble [4 × 7]> <tibble [1 × 7]>  -0.108    -0.368     0.153
##  7    26 <lm>   <tibble [4 × 7]> <tibble [1 × 7]>  -0.0942   -0.345     0.156
##  8    27 <lm>   <tibble [4 × 7]> <tibble [1 × 7]>  -0.0807   -0.322     0.160
##  9    28 <lm>   <tibble [4 × 7]> <tibble [1 × 7]>  -0.0672   -0.298     0.164
## 10    29 <lm>   <tibble [4 × 7]> <tibble [1 × 7]>  -0.0537   -0.275     0.168
## # … with 61 more rows
…
