Chapter 11 Continuous Response II | Preceptor’s Primer for Bayesian Data Science
…
The process is somewhat more involved because we have multiple coefficients around which we would like to construct confidence intervals.

library(rsample)

x <- earnings %>%
  bootstraps(times = 1000) %>%
  mutate(mod = map(splits, ~ lm(income ~ age * gender, data = .)),
         reg_results = map(mod, ~ tidy(.)))

Let’s take advantage of unnest() to reshape our data so that the unit of analysis is a replicate-term:

  x %>% unnest(reg_results)

## # A tibble: 4,000 x 8
##    splits       id         mod   term      estimate std.error statistic  p.value
##    <list>       <chr>      <lis> <chr>        <dbl>     <dbl>     <dbl>    <dbl>
##  1 <split [115… Bootstrap… <lm>  (Interce…  138727.    34882.     3.98   1.25e-4
##  2 <split [115… Bootstrap… <lm>  age          -377.      882.    -0.427  6.70e-1
##  3 <split [115… Bootstrap… <lm>  genderMa…  -65001.    46399.    -1.40   1.64e-1
##  4 <split [115… Bootstrap… <lm>  age:gend…    2316.     1156.     2.00   4.75e-2
##  5 <split [115… Bootstrap… <lm>  (Interce…  142668.    35271.     4.04   9.70e-5
##  6 <split [115… Bootstrap… <lm>  age          -380.      792.    -0.479  6.33e-1
##  7 <split [115… Bootstrap… <lm>  genderMa…  -46134.    47424.    -0.973  3.33e-1
##  8 <split [115… Bootstrap… <lm>  age:gend…    1797.     1062.     1.69   9.34e-2
##  9 <split [115… Bootstrap… <lm>  (Interce…  123126.    33480.     3.68   3.65e-4
## 10 <split [115… Bootstrap… <lm>  age           411.      799.     0.514  6.08e-1
## # … with 3,990 more rows
…
         # We only care about the term "gendermale":
         
         reg_gendermale = map(reg_results, ~ filter(., term == "genderMale")),
         
         # Now, let's get the estimates and CIs:
         
         estimate = map_dbl(reg_gendermale, ~ pull(., estimate)),
         conf.low = map_dbl(reg_gendermale, ~ pull(., conf.low)),
         conf.high = map_dbl(reg_gendermale, ~ pull(., conf.high)))

gendermale_coefs

## # A tibble: 71 x 7
##     ages mod    reg_results      reg_gendermale    estimate conf.low conf.high
##    <int> <list> <list>           <list>               <dbl>    <dbl>     <dbl>
##  1    20 <lm>   <tibble [4 × 7]> <tibble [1 × 7]> -11691.    -68180.    44798.
##  2    21 <lm>   <tibble [4 × 7]> <tibble [1 × 7]> -10020.    -64557.    44518.
##  3    22 <lm>   <tibble [4 × 7]> <tibble [1 × 7]>  -8348.    -60957.    44260.
##  4    23 <lm>   <tibble [4 × 7]> <tibble [1 × 7]>  -6677.    -57382.    44029.
##  5    24 <lm>   <tibble [4 × 7]> <tibble [1 × 7]>  -5005.    -53836.    43825.
##  6    25 <lm>   <tibble [4 × 7]> <tibble [1 × 7]>  -3334.    -50322.    43654.
##  7    26 <lm>   <tibble [4 × 7]> <tibble [1 × 7]>  -1663.    -46844.    43519.
##  8    27 <lm>   <tibble [4 × 7]> <tibble [1 × 7]>      8.70  -43407.    43424.
##  9    28 <lm>   <tibble [4 × 7]> <tibble [1 × 7]>   1680.    -40015.    43375.
## 10    29 <lm>   <tibble [4 × 7]> <tibble [1 × 7]>   3351.    -36674.    43377.
## # … with 61 more rows
…
Let’s create new log10 transformed versions of the right-skewed variable price and sqft_living using the mutate() function from Section 1.13.8, but we’ll give the latter the name log10_size, which is shorter and easier to understand than the name log10_sqft_living.

house_prices <- house_prices %>%
  mutate(
    log10_price = log10(price),
    log10_size = log10(sqft_living)
    )

Let’s display the before and after effects of this transformation on these variables for only the first 10 rows of house_prices:

house_prices %>% 
  select(price, log10_price, sqft_living, log10_size)

## # A tibble: 21,613 x 4
##      price log10_price sqft_living log10_size
##      <dbl>       <dbl>       <int>      <dbl>
##  1  221900        5.35        1180       3.07
##  2  538000        5.73        2570       3.41
##  3  180000        5.26         770       2.89
##  4  604000        5.78        1960       3.29
##  5  510000        5.71        1680       3.23
##  6 1225000        6.09        5420       3.73
##  7  257500        5.41        1715       3.23
##  8  291850        5.47        1060       3.03
##  9  229500        5.36        1780       3.25
## 10  323000        5.51        1890       3.28
## # … with 21,603 more rows
…
11.3.5 Fitting many models using map()

Much like we did with the gubernatorial forecasts in the last chapter, we can now use map_* functions to estimate many models using our house prices data.

How well do size and condition predict house prices for older houses versus newer ones? That’s difficult to visualize without using map_* functions. But by using map() and list columns, we can learn a lot we couldn’t otherwise.

Let’s start by filtering our data to houses built before 2000 (since there is little variation in condition for more recently built houses) and nest() by yr_built:

house_prices %>%
  filter(yr_built < 2000) %>%
  group_by(yr_built) %>%
  nest()

## # A tibble: 100 x 2
## # Groups:   yr_built [100]
##    yr_built data               
##       <int> <list>             
##  1     1955 <tibble [271 × 22]>
##  2     1951 <tibble [229 × 22]>
##  3     1933 <tibble [30 × 22]> 
##  4     1965 <tibble [187 × 22]>
##  5     1987 <tibble [294 × 22]>
##  6     1995 <tibble [169 × 22]>
##  7     1963 <tibble [256 × 22]>
##  8     1960 <tibble [248 × 22]>
##  9     1942 <tibble [223 × 22]>
## 10     1927 <tibble [115 × 22]>
## # … with 90 more rows

Now that we have a list column data consisting of our data for each yr_built, we can use some familiar code to run a model for each year. Let’s simplify the model to the parallel slopes model, which we can implement with the formula log10_price ~ log10_size + condition. This simpler model may be a better choice since we have far fewer observations per model. (In general, the smaller your data, the greater concern you should have that you are “overfitting” by including too many predictors.)

Let’s start by saving our model object in the list column mod and the tidied version of that in the list column reg_results:

house_prices %>%
  filter(yr_built < 2000) %>%
  group_by(yr_built) %>%
  nest() %>%
  mutate(mod = map(data, ~ lm(log10_price ~ log10_size + condition, 
                        data = .)),
         reg_results = map(mod, ~ tidy(., conf.int = TRUE)))

## # A tibble: 100 x 4
## # Groups:   yr_built [100]
##    yr_built data                mod    reg_results     
##       <int> <list>              <list> <list>          
##  1     1955 <tibble [271 × 22]> <lm>   <tibble [6 × 7]>
##  2     1951 <tibble [229 × 22]> <lm>   <tibble [5 × 7]>
##  3     1933 <tibble [30 × 22]>  <lm>   <tibble [6 × 7]>
##  4     1965 <tibble [187 × 22]> <lm>   <tibble [4 × 7]>
##  5     1987 <tibble [294 × 22]> <lm>   <tibble [5 × 7]>
##  6     1995 <tibble [169 × 22]> <lm>   <tibble [5 × 7]>
##  7     1963 <tibble [256 × 22]> <lm>   <tibble [5 × 7]>
##  8     1960 <tibble [248 × 22]> <lm>   <tibble [5 × 7]>
##  9     1942 <tibble [223 × 22]> <lm>   <tibble [6 × 7]>
## 10     1927 <tibble [115 × 22]> <lm>   <tibble [4 × 7]>
## # … with 90 more rows
…
house_year_model

## # A tibble: 100 x 7
## # Groups:   yr_built [100]
##    yr_built data  mod   reg_results log10_size_coef log10_size_low
##       <int> <lis> <lis> <list>                <dbl>          <dbl>
##  1     1955 <tib… <lm>  <tibble [6…           0.745          0.621
##  2     1951 <tib… <lm>  <tibble [5…           0.912          0.785
##  3     1933 <tib… <lm>  <tibble [6…           1.34           1.08 
##  4     1965 <tib… <lm>  <tibble [4…           0.847          0.702
##  5     1987 <tib… <lm>  <tibble [5…           1.02           0.900
##  6     1995 <tib… <lm>  <tibble [5…           1.14           1.01 
##  7     1963 <tib… <lm>  <tibble [5…           0.986          0.837
##  8     1960 <tib… <lm>  <tibble [5…           0.919          0.789
##  9     1942 <tib… <lm>  <tibble [6…           0.622          0.483
## 10     1927 <tib… <lm>  <tibble [4…           0.818          0.657
## # … with 90 more rows, and 1 more variable: log10_size_high <dbl>
…
