Chapter 6 One Parameter | Gov 50: Data
…
Observe the following details in the histogram:

At the low end, one group removed 50 beads from the urn with proportion red between 0.20 and 0.25.

At the high end, another group removed 50 beads from the urn with proportion between 0.45 and 0.5 red.

However, the most frequently occurring proportions were between 0.30 and 0.35 red, right in the middle of the distribution.

The shape of this distribution is somewhat bell-shaped.

Tactile_sample_urn saves the results from our 33 groups of friends. Run the following to display the tibble:

## # A tibble: 33 x 4
##    group           red_beads prop_red replicate
##    <chr>               <dbl>    <dbl>     <int>
##  1 Ilyas, Yohan           21     0.42         1
##  2 Ace, Chris             18     0.36         2
##  3 Paddy, Matt            16     0.32         3
##  4 Sanjana, Yuko          19     0.38         4
##  5 Mark, Ramses           21     0.42         5
##  6 Ellie, Terrance        17     0.34         6
##  7 Katie, Anthony         20     0.4          7
##  8 Mal, Francis           17     0.34         8
##  9 Ian, Iman              18     0.36         9
## 10 Mak, Sophie            17     0.34        10
## # … with 23 more rows
…
6.2.1 Using the virtual shovel once

Let’s start by performing the virtual analog of the tactile sampling exercise we performed in Section 6.1. We first need a virtual analog of the urn seen in the beginning of our chapter. To this end, we creat a data frame named urn. The rows of urn correspond exactly with the contents of the actual urn.

⊕For reference, sample-frac() merely re-arranges the rows of the tibble. We use set.seed() to ensure that the beads in our virtual urn are always in the same order. This makes certain that the figures in the book match their written descriptions.

set.seed(9)
urn <- tibble(color = c(rep("red", 900), rep("white", 1500))) %>%
  sample_frac() %>% 
  mutate(bead_ID = 1:2400) %>% 
  select(bead_ID, color)
urn  

## # A tibble: 2,400 x 2
##    bead_ID color
##      <int> <chr>
##  1       1 white
##  2       2 white
##  3       3 white
##  4       4 white
##  5       5 red  
##  6       6 red  
##  7       7 white
##  8       8 red  
##  9       9 red  
## 10      10 red  
## # … with 2,390 more rows

Observe that urn has 2400 rows, telling us that the urn contains 2400 equally sized beads. The first variable bead_ID is used as an identification variable; none of the beads in the actual urn are marked with numbers. The second variable color indicates whether a particular virtual bead is red or white. View the contents of the urn in RStudio’s data viewer and scroll through the contents to convince yourself that urn is indeed a virtual analog of the actual urn.

Now that we have a virtual analog of our urn, we need a virtual analog of the shovel seen in Figure 6.2 to generate virtual samples of 50 beads. We’re going to use the rep_sample_n() function included in the infer package. This function allows us to take repeated, or replicated, samples of size n.

Now, let’s use rep_sample_n() to take a sample of 50 beads (denoted by size = 50) from our virtual urn.

virtual_shovel <- urn %>% 
  rep_sample_n(size = 50)
virtual_shovel

## # A tibble: 50 x 3
## # Groups:   replicate [1]
##    replicate bead_ID color
##        <int>   <int> <chr>
##  1         1    1511 white
##  2         1    1444 white
##  3         1    1988 red  
##  4         1    1152 white
##  5         1     716 white
##  6         1     667 red  
##  7         1     773 red  
##  8         1      91 white
##  9         1     896 red  
## 10         1    2104 white
## # … with 40 more rows

Observe that virtual_shovel has 50 rows corresponding to our virtual sample of size 50. The bead_ID variable identifies which of the 2400 beads from urn are included in our sample of 50 beads while color denotes its color. However, what does the replicate variable indicate? In virtual_shovel’s case, replicate is equal to 1 for all 50 rows. This is telling us that these 50 rows correspond to the first repeated/replicated use of the shovel, in our case our first sample. We’ll see shortly that when we “virtually” take 33 samples, replicate will take values between 1 and 33.

Let’s compute the proportion of beads in our virtual sample that are red using the dplyr data wrangling verbs you learned in Chapter 2. First, for each of our 50 sampled beads, let’s identify if it is red or not using a test for equality with ==. Let’s create a new Boolean variable is_red using the mutate() function from Section 1.4.6:

virtual_shovel %>% 
  mutate(is_red = (color == "red"))

## # A tibble: 50 x 4
## # Groups:   replicate [1]
##    replicate bead_ID color is_red
##        <int>   <int> <chr> <lgl> 
##  1         1    1511 white FALSE 
##  2         1    1444 white FALSE 
##  3         1    1988 red   TRUE  
##  4         1    1152 white FALSE 
##  5         1     716 white FALSE 
##  6         1     667 red   TRUE  
##  7         1     773 red   TRUE  
##  8         1      91 white FALSE 
##  9         1     896 red   TRUE  
## 10         1    2104 white FALSE 
## # … with 40 more rows
…
Great! 24% of virtual_shovel’s 50 beads were red! So based on this particular sample of 50 beads, our guess at the proportion of the urn’s beads that are red is 24%. But remember from our earlier tactile sampling activity that if we repeat this sampling, we will not necessarily obtain the same value of 24% again. There will likely be some variation. In fact, our 33 groups of friends computed 33 such proportions whose distribution we previously visualized. We saw that these estimates varied. Let’s now perform the virtual analog of having 33 groups of students use the sampling shovel!

6.2.2 Using the virtual shovel 33 times

Recall that in our tactile sampling exercise in Section 6.1, we had 33 groups of students each use the shovel, yielding 33 samples of size 50 beads. We then used these 33 samples to compute 33 proportions. We can perform this repeated/replicated sampling virtually by once again using our virtual shovel function rep_sample_n(), adding the reps = 33 argument. This is telling R that we want to repeat the sampling 33 times.

We’ll save these results in a data frame called virtual_samples.

virtual_samples <- urn %>% 
  rep_sample_n(size = 50, reps = 33)
virtual_samples

## # A tibble: 1,650 x 3
## # Groups:   replicate [33]
##    replicate bead_ID color
##        <int>   <int> <chr>
##  1         1    1042 red  
##  2         1     265 red  
##  3         1    1079 white
##  4         1    2143 white
##  5         1    2347 white
##  6         1    2005 white
##  7         1    1912 white
##  8         1    1068 white
##  9         1    2322 red  
## 10         1    1241 white
## # … with 1,640 more rows

Observe that the first 50 rows of replicate are equal to 1 while the next 50 rows of replicate are equal to 2. This is telling us that the first 50 rows correspond to the first sample of 50 beads while the next 50 rows correspond to the second sample of 50 beads. This pattern continues for all reps = 33 replicates and thus virtual_samples has 33 \(\cdot\) 50 = 1650 rows.

Let’s now take virtual_samples and compute the resulting 33 proportions red. We’ll use the same dplyr verbs as before, but this time with an additional group_by() of the replicate variable. Recall that by assigning the grouping variable “meta-data” before we summarize(), we’ll obtain 33 different proportions red. We display a preview of the first 10 out of 33 rows:

virtual_prop_red <- virtual_samples %>% 
  group_by(replicate) %>% 
  summarize(red = sum(color == "red"), .groups = 'drop_last') %>% 
  mutate(prop_red = red / 50)
virtual_prop_red

## # A tibble: 33 x 3
##    replicate   red prop_red
##        <int> <int>    <dbl>
##  1         1    17     0.34
##  2         2    22     0.44
##  3         3    20     0.4 
##  4         4    18     0.36
##  5         5    15     0.3 
##  6         6    16     0.32
##  7         7    25     0.5 
##  8         8    22     0.44
##  9         9    21     0.42
## 10        10    19     0.38
## # … with 23 more rows
…
Now say we want to study the effects of sampling variation not for 33 samples, but rather for a larger number of samples (1000). We have two choices at this point. We could have our groups of friends manually take 1,000 samples of 50 beads and compute the corresponding 1,000 proportions. However, this would be a time-consuming task. This is where computers excel: automating long and repetitive tasks while performing them quite quickly. At this point, we will abandon tactile sampling in favor of only virtual sampling. Let’s once again use the rep_sample_n() function with sample size set to be 50 once again, but this time with the number of replicates reps set to 1000. Be sure to scroll through the contents of virtual_samples in RStudio’s viewer.

virtual_samples <- urn %>% 
  rep_sample_n(size = 50, reps = 1000)
virtual_samples

## # A tibble: 50,000 x 3
## # Groups:   replicate [1,000]
##    replicate bead_ID color
##        <int>   <int> <chr>
##  1         1     627 white
##  2         1     824 white
##  3         1    1906 red  
##  4         1     344 white
##  5         1    1598 red  
##  6         1    1869 white
##  7         1     934 red  
##  8         1      39 red  
##  9         1     696 white
## 10         1      13 white
## # … with 49,990 more rows

Observe that now virtual_samples has 1,000 \(\cdot\) 50 = 50,000 rows, instead of the 33 \(\cdot\) 50 = 1650 rows from earlier. Using the same data wrangling code as earlier, let’s take the data frame virtual_samples with 1,000 \(\cdot\) 50 = 50,000 rows and compute the resulting 1,000 proportions of red beads.

virtual_prop_red <- virtual_samples %>% 
  group_by(replicate) %>% 
  summarize(red = sum(color == "red"), .groups = 'drop_last') %>% 
  mutate(prop_red = red / 50)
virtual_prop_red

## # A tibble: 1,000 x 3
##    replicate   red prop_red
##        <int> <int>    <dbl>
##  1         1    21     0.42
##  2         2    18     0.36
##  3         3    19     0.38
##  4         4    19     0.38
##  5         5    16     0.32
##  6         6    19     0.38
##  7         7    21     0.42
##  8         8    16     0.32
##  9         9    19     0.38
## 10        10    22     0.44
## # … with 990 more rows
…
We will break this into two functions, one called use_shovel() which will use a shovel of the specified size, and another called prop_red() which will calculate the proportion of red for a shovel of the specified size.

First, let’s create use_shovel().

use_shovel <- function(x, size, reps) {
  x %>% rep_sample_n(size = size, reps = reps)
}
use_shovel(x = urn, size = 25, reps = 1000)

## # A tibble: 25,000 x 3
## # Groups:   replicate [1,000]
##    replicate bead_ID color
##        <int>   <int> <chr>
##  1         1    1660 white
##  2         1    2335 red  
##  3         1    1735 white
##  4         1     158 white
##  5         1      40 red  
##  6         1     255 red  
##  7         1      54 red  
##  8         1    1584 white
##  9         1     106 white
## 10         1    1885 red  
## # … with 24,990 more rows

See that we now can create the object virtual_samples_25 with the code virtual_samples_25 <- use_shovel(x = urn, size = 25, reps = 1000). This is far more succinct than our previous code, and it allows us to use a shovel of any size we’d like.

Now, we can use our use_shovel() function to develop another function, prop_red():

prop_red <- function(x, size, reps) {
  use_shovel(x = x, size = size, reps = reps) %>%
    group_by(replicate) %>%
    summarize(red = sum(color == "red"), .groups = 'drop_last') %>%
    mutate(prop_red = red / size)
}
prop_red(x = urn, size = 25, reps = 1000)

## # A tibble: 1,000 x 3
##    replicate   red prop_red
##        <int> <int>    <dbl>
##  1         1    10     0.4 
##  2         2     9     0.36
##  3         3     9     0.36
##  4         4     9     0.36
##  5         5     6     0.24
##  6         6    10     0.4 
##  7         7     8     0.32
##  8         8     8     0.32
##  9         9     9     0.36
## 10        10    12     0.48
## # … with 990 more rows
…
