Chapter 5 Probability | Preceptor’s Primer for Bayesian Data Science
…
Although the most likely value for \(p\) is 0.4, it is actually more likely that \(p\) is a different value than 0.4, either lower or higher and, potentially, much lower or higher. To get the correct uncertainty in our forecasts for the number of heads in the next 20 tosses, we need to incorporate that uncertainty directly.

# Did not get around to finishing this.

x %>% 
  select(-rep, -total) 

## # A tibble: 4,827 x 1
## # Groups:   mod [8]
##      mod
##    <dbl>
##  1   0.1
##  2   0.1
##  3   0.1
##  4   0.1
##  5   0.1
##  6   0.2
##  7   0.2
##  8   0.2
##  9   0.2
## 10   0.2
## # … with 4,817 more rows
…
