Chapter 10 Continuous Response I | Preceptor’s Primer for Bayesian Data Science
…
10.2 Uncertainty in simple linear regressions

You might be wondering what the remaining five columns created by tidy() are: std.error, statistic, p.value, conf.low and conf.high. They are the standard error, test statistic, p-value, lower 95% confidence interval bound, and upper 95% confidence interval bound. We will focus on the confidence interval bounds. We have already explored the concept of confidence intervals in Chapter ??. These bounds are an application of the same concept, but applied to the slope of our simple linear regression.

Let’s load the infer package. We’re going to use the function rep_sample_n() to resample from our data 1,000 times:

library(infer)

x <- evals_ch11 %>% 
  select(score, bty_avg) %>% 
  rep_sample_n(size = nrow(evals_ch11), replace = TRUE, reps = 1000)

x

## # A tibble: 463,000 x 3
## # Groups:   replicate [1,000]
##    replicate score bty_avg
##        <int> <dbl>   <dbl>
##  1         1   4.3    4.17
##  2         1   4.9    4.5 
##  3         1   3.6    2.83
##  4         1   4.9    4   
##  5         1   4.4    4.17
##  6         1   3.3    5.5 
##  7         1   3.9    5.83
##  8         1   4.3    4.33
##  9         1   4.6    7.33
## 10         1   4.4    4.17
## # … with 462,990 more rows

For each replicate, we have 463 resamples of score and bty_avg.

Next, we are going to introduce a new function: nest():

x <- x %>% 
  group_by(replicate) %>% 
  nest()

x

## # A tibble: 1,000 x 2
## # Groups:   replicate [1,000]
##    replicate data              
##        <int> <list>            
##  1         1 <tibble [463 × 2]>
##  2         2 <tibble [463 × 2]>
##  3         3 <tibble [463 × 2]>
##  4         4 <tibble [463 × 2]>
##  5         5 <tibble [463 × 2]>
##  6         6 <tibble [463 × 2]>
##  7         7 <tibble [463 × 2]>
##  8         8 <tibble [463 × 2]>
##  9         9 <tibble [463 × 2]>
## 10        10 <tibble [463 × 2]>
## # … with 990 more rows

nest() comes from the tidyr package. It’s easiest to understand what nest() does by looking at its output. After grouping by replicate and using nest(), we now have a dataset of 1,000 rows and a list column named data. What’s in this list column? Each element of data is a tibble consisting of one of the resampled datasets we created using rep_sample_n(). nest() is thus a useful function when you have a series of bootstrapped samples and want to run the same function on each sample.

Now, we can use map() to run our linear regression for each dataset:

x <- x %>% 
  mutate(mod = map(data, ~ lm(score ~ bty_avg, data = .)))

x

## # A tibble: 1,000 x 3
## # Groups:   replicate [1,000]
##    replicate data               mod   
##        <int> <list>             <list>
##  1         1 <tibble [463 × 2]> <lm>  
##  2         2 <tibble [463 × 2]> <lm>  
##  3         3 <tibble [463 × 2]> <lm>  
##  4         4 <tibble [463 × 2]> <lm>  
##  5         5 <tibble [463 × 2]> <lm>  
##  6         6 <tibble [463 × 2]> <lm>  
##  7         7 <tibble [463 × 2]> <lm>  
##  8         8 <tibble [463 × 2]> <lm>  
##  9         9 <tibble [463 × 2]> <lm>  
## 10        10 <tibble [463 × 2]> <lm>  
## # … with 990 more rows

Note that the use of “.” in this call to map() is somewhat different to the use of “.” that we have seen before. In a normal pipe, a “.” refers to the tibble which was passed down from the previous line. However, within a map function, a “.” refers to an element in the .x object (the first argument) which the map() function is iterating over.

In this case, map() is iterating over data, which is a column in the tibble x. map() goes through each item of data, passing each to the function which is its .f input, in this case an anonymous function built around lm(). So, each time lm() runs it is using a different row from the data variable. map() is iterating over data, passing each element in data as an argument to lm().

Now we have a new list column, mod, that contains the model objects created by lm(). We will now want to tidy() the object created by lm():

x <- x %>% 
  mutate(reg_results = map(mod, ~ tidy(.)))

x

## # A tibble: 1,000 x 4
## # Groups:   replicate [1,000]
##    replicate data               mod    reg_results     
##        <int> <list>             <list> <list>          
##  1         1 <tibble [463 × 2]> <lm>   <tibble [2 × 5]>
##  2         2 <tibble [463 × 2]> <lm>   <tibble [2 × 5]>
##  3         3 <tibble [463 × 2]> <lm>   <tibble [2 × 5]>
##  4         4 <tibble [463 × 2]> <lm>   <tibble [2 × 5]>
##  5         5 <tibble [463 × 2]> <lm>   <tibble [2 × 5]>
##  6         6 <tibble [463 × 2]> <lm>   <tibble [2 × 5]>
##  7         7 <tibble [463 × 2]> <lm>   <tibble [2 × 5]>
##  8         8 <tibble [463 × 2]> <lm>   <tibble [2 × 5]>
##  9         9 <tibble [463 × 2]> <lm>   <tibble [2 × 5]>
## 10        10 <tibble [463 × 2]> <lm>   <tibble [2 × 5]>
## # … with 990 more rows

tidy() stores the coefficients in the estimate column, with each coefficient named in the term column. Thus, if we filter() by term and pull(estimate), we can get the regression coefficient for each bootstrap sample:

x <- x %>%
  mutate(disp_coef = map_dbl(reg_results, ~ filter(., term == "bty_avg") %>% pull(estimate)))

x

## # A tibble: 1,000 x 5
## # Groups:   replicate [1,000]
##    replicate data               mod    reg_results      disp_coef
##        <int> <list>             <list> <list>               <dbl>
##  1         1 <tibble [463 × 2]> <lm>   <tibble [2 × 5]>    0.0533
##  2         2 <tibble [463 × 2]> <lm>   <tibble [2 × 5]>    0.0642
##  3         3 <tibble [463 × 2]> <lm>   <tibble [2 × 5]>    0.0473
##  4         4 <tibble [463 × 2]> <lm>   <tibble [2 × 5]>    0.0690
##  5         5 <tibble [463 × 2]> <lm>   <tibble [2 × 5]>    0.0524
##  6         6 <tibble [463 × 2]> <lm>   <tibble [2 × 5]>    0.0576
##  7         7 <tibble [463 × 2]> <lm>   <tibble [2 × 5]>    0.0679
##  8         8 <tibble [463 × 2]> <lm>   <tibble [2 × 5]>    0.0770
##  9         9 <tibble [463 × 2]> <lm>   <tibble [2 × 5]>    0.0815
## 10        10 <tibble [463 × 2]> <lm>   <tibble [2 × 5]>    0.0409
## # … with 990 more rows
…
bty_avg = 5.50 is the value of the explanatory variable bty_avg \(x\) for this course’s instructor.

.fitted = 4.25 = 3.880338 + 0.066637 \(\cdot\) 5.50 is the fitted value \(\widehat{y}\) on the regression line for this course’s instructor.

.resid = 0.153 = 4.4 - 4.25 is the value of the residual for this instructor. In other words, the model’s fitted value was off by 0.153 teaching score units for this course’s instructor.

At this point, you can skip ahead if you like to Section 10.4 to learn about the processes behind what makes “best-fitting” regression lines. As a primer, a “best-fitting” line refers to the line that minimizes the sum of squared residuals out of all possible lines we can draw through the points. In Section ??, we’ll discuss another common scenario of having a categorical explanatory variable and a numerical outcome variable.

Constructing a measure of uncertainty around the fitted values can also be done using the augment() function. The simplest way to do this is through the standard error method that we learned in the last chapter. Note that augment() saves the standard errors of the fitted values in a column called .se.fit:

score_model %>%
  augment() %>%
  select(score, bty_avg, .fitted, .se.fit, .resid)

## # A tibble: 463 x 5
##    score bty_avg .fitted .se.fit   .resid
##    <dbl>   <dbl>   <dbl>   <dbl>    <dbl>
##  1   4.7    5       4.21  0.0266  0.486  
##  2   4.1    5       4.21  0.0266 -0.114  
##  3   3.9    5       4.21  0.0266 -0.314  
##  4   4.8    5       4.21  0.0266  0.586  
##  5   4.6    3       4.08  0.0339  0.520  
##  6   4.3    3       4.08  0.0339  0.220  
##  7   2.8    3       4.08  0.0339 -1.28   
##  8   4.1    3.33    4.10  0.0305 -0.00244
##  9   3.4    3.33    4.10  0.0305 -0.702  
## 10   4.5    3.17    4.09  0.0321  0.409  
## # … with 453 more rows

Now that we have the standard error of the fitted values, we can construct a confidence interval easily:

score_model %>%
  augment() %>%
  mutate(conf.low = .fitted - 2 * .se.fit,
         conf.high = .fitted + 2 * .se.fit) %>%
  select(score, bty_avg, .fitted, conf.low, conf.high, .resid)

## # A tibble: 463 x 6
##    score bty_avg .fitted conf.low conf.high   .resid
##    <dbl>   <dbl>   <dbl>    <dbl>     <dbl>    <dbl>
##  1   4.7    5       4.21     4.16      4.27  0.486  
##  2   4.1    5       4.21     4.16      4.27 -0.114  
##  3   3.9    5       4.21     4.16      4.27 -0.314  
##  4   4.8    5       4.21     4.16      4.27  0.586  
##  5   4.6    3       4.08     4.01      4.15  0.520  
##  6   4.3    3       4.08     4.01      4.15  0.220  
##  7   2.8    3       4.08     4.01      4.15 -1.28   
##  8   4.1    3.33    4.10     4.04      4.16 -0.00244
##  9   3.4    3.33    4.10     4.04      4.16 -0.702  
## 10   4.5    3.17    4.09     4.03      4.16  0.409  
## # … with 453 more rows
…
Let’s use our data wrangling tools from Chapter 2 to compute the sum of squared residuals exactly:

# Fit regression model:

score_model <- lm(score ~ bty_avg, 
                  data = evals_ch11)

# Get regression points:

regression_points <- score_model %>%
  augment()
regression_points

## # A tibble: 463 x 9
##    score bty_avg .fitted .se.fit   .resid    .hat .sigma      .cooksd .std.resid
##    <dbl>   <dbl>   <dbl>   <dbl>    <dbl>   <dbl>  <dbl>        <dbl>      <dbl>
##  1   4.7    5       4.21  0.0266  0.486   0.00247  0.535 0.00103         0.911  
##  2   4.1    5       4.21  0.0266 -0.114   0.00247  0.535 0.0000560      -0.213  
##  3   3.9    5       4.21  0.0266 -0.314   0.00247  0.535 0.000427       -0.587  
##  4   4.8    5       4.21  0.0266  0.586   0.00247  0.535 0.00149         1.10   
##  5   4.6    3       4.08  0.0339  0.520   0.00403  0.535 0.00192         0.974  
##  6   4.3    3       4.08  0.0339  0.220   0.00403  0.535 0.000343        0.412  
##  7   2.8    3       4.08  0.0339 -1.28    0.00403  0.532 0.0116         -2.40   
##  8   4.1    3.33    4.10  0.0305 -0.00244 0.00325  0.535 0.0000000340   -0.00457
##  9   3.4    3.33    4.10  0.0305 -0.702   0.00325  0.534 0.00282        -1.32   
## 10   4.5    3.17    4.09  0.0321  0.409   0.00361  0.535 0.00106         0.765  
## # … with 453 more rows
…
