Chapter 8 Three Parameters | Gov 50: Data
…
Recall how we constructed bootstrap distributions for a parameter by sampling with replacement in Chapter 7. Through this bootstrapping process, we were able to construct confidence intervals for a parameter. Remember, confidence intervals are a tool to help us identify parameter uncertainty, which is the degree to which we are confident in these estimates of the unknown (and often unknowable) numbers.

We will once again be using the bootstraps() function from the rsample package. You might think that since we’re shifting to calculating two parameters, we might need to conduct the entire bootstrapping process twice, once for each parameter. However, it’s much, much easier than that. We can actually calculate as many parameters as we need to for each bootstrap sample instead of doing a separate bootstrap for each parameter we want to estimate.

Let’s review the material from Chapter 7 by calculating the confidence interval for both the mean and the 90th percentile of age for Boston commuters. We will build up the code section by section.

First, we select out the only variable we need, with is age, and then create an objects of class bootstraps.

trains %>% 
  select(age) %>% 
  bootstraps(1000)

## # Bootstrap sampling 
## # A tibble: 1,000 x 2
##    splits           id           
##    <list>           <chr>        
##  1 <split [115/45]> Bootstrap0001
##  2 <split [115/40]> Bootstrap0002
##  3 <split [115/44]> Bootstrap0003
##  4 <split [115/35]> Bootstrap0004
##  5 <split [115/42]> Bootstrap0005
##  6 <split [115/41]> Bootstrap0006
##  7 <split [115/40]> Bootstrap0007
##  8 <split [115/39]> Bootstrap0008
##  9 <split [115/39]> Bootstrap0009
## 10 <split [115/40]> Bootstrap0010
## # … with 990 more rows

We discussed these objects in Chapter 7. The key trick in working with them is the use of analysis() from the rsample package to pull out the underlying data.

trains %>% 
  select(age) %>% 
  bootstraps(1000) %>% 
  mutate(boot = map(splits, ~ analysis(.)))

## # Bootstrap sampling 
## # A tibble: 1,000 x 3
##    splits           id            boot              
##    <list>           <chr>         <list>            
##  1 <split [115/44]> Bootstrap0001 <tibble [115 × 1]>
##  2 <split [115/42]> Bootstrap0002 <tibble [115 × 1]>
##  3 <split [115/45]> Bootstrap0003 <tibble [115 × 1]>
##  4 <split [115/41]> Bootstrap0004 <tibble [115 × 1]>
##  5 <split [115/49]> Bootstrap0005 <tibble [115 × 1]>
##  6 <split [115/43]> Bootstrap0006 <tibble [115 × 1]>
##  7 <split [115/41]> Bootstrap0007 <tibble [115 × 1]>
##  8 <split [115/40]> Bootstrap0008 <tibble [115 × 1]>
##  9 <split [115/44]> Bootstrap0009 <tibble [115 × 1]>
## 10 <split [115/42]> Bootstrap0010 <tibble [115 × 1]>
## # … with 990 more rows

boot is now a list-column in the tibble. This workflow — keep adding new columns to the tibble created after the initial call to bootstraps() — is common. Let’s add three more columns.

trains %>% 
  select(age) %>% 
  bootstraps(1000) %>% 
  mutate(boot = map(splits, ~ analysis(.))) %>%
  mutate(ages = map(boot, ~ pull(., age))) %>% 
  mutate(age_mean = map_dbl(ages, ~ mean(.))) %>% 
  mutate(age_90th = map_dbl(ages, ~ quantile(., probs = 0.9)))

## # Bootstrap sampling 
## # A tibble: 1,000 x 6
##    splits           id            boot              ages       age_mean age_90th
##    <list>           <chr>         <list>            <list>        <dbl>    <dbl>
##  1 <split [115/43]> Bootstrap0001 <tibble [115 × 1… <dbl [115…     42.7     56.6
##  2 <split [115/49]> Bootstrap0002 <tibble [115 × 1… <dbl [115…     42.7     59.6
##  3 <split [115/51]> Bootstrap0003 <tibble [115 × 1… <dbl [115…     44.1     60  
##  4 <split [115/45]> Bootstrap0004 <tibble [115 × 1… <dbl [115…     42.7     57  
##  5 <split [115/44]> Bootstrap0005 <tibble [115 × 1… <dbl [115…     42.0     56.2
##  6 <split [115/40]> Bootstrap0006 <tibble [115 × 1… <dbl [115…     41.4     56.2
##  7 <split [115/41]> Bootstrap0007 <tibble [115 × 1… <dbl [115…     41.2     56.6
##  8 <split [115/42]> Bootstrap0008 <tibble [115 × 1… <dbl [115…     42.3     56  
##  9 <split [115/44]> Bootstrap0009 <tibble [115 × 1… <dbl [115…     43.7     60  
## 10 <split [115/46]> Bootstrap0010 <tibble [115 × 1… <dbl [115…     42.7     59.6
## # … with 990 more rows
…
The 95% confidence interval calculated via lm() is, more or less, the same as the one we calculate “by hand” using the bootstrap: 40.03, 44.57. Of course, there is no built-in function for calculating the confidence interval for the 90th percentile, so there is nothing against which to compare the bootstrap calculation of 54.6, 60. Note, however, how the most likely value for the 90th percentile, 60, is also at the end of the confidence interval.

8.2.1 Prediction

Before considering the questions we want to answer with our model of mean height, let’s step back and look at the big picture. All modeling problems look the same:

\[outcome = model + stuff\]
There is an outcome we care about. In this case, it is heights. But it could be anything. This is the thing that we are trying to understand. In order to understand it, we build a model. That takes time and trouble, so much so that we will sometimes forget that no model explains every outcome. There will always be other “stuff” which affects outcomes, influences that our model does not account for, unmodeled variation. Consider a sample from our dataset, augmented with other variables:

trains %>% 
  lm(age ~ 1, data = .) %>%
  augment() %>% 
  select(age, .fitted, .resid)

## # A tibble: 115 x 3
##      age .fitted  .resid
##    <dbl>   <dbl>   <dbl>
##  1    31    42.4 -11.4  
##  2    34    42.4  -8.37 
##  3    63    42.4  20.6  
##  4    45    42.4   2.63 
##  5    55    42.4  12.6  
##  6    37    42.4  -5.37 
##  7    53    42.4  10.6  
##  8    36    42.4  -6.37 
##  9    54    42.4  11.6  
## 10    42    42.4  -0.365
## # … with 105 more rows
…
