Chapter 2 Tidyverse | Preceptor’s Primer for Bayesian Data Science
…
Now, call gender_data.

gender_data

## Warning: `...` is not empty.
## 
## We detected these problematic arguments:
## * `needs_dots`
## 
## These dots only exist to allow future extensions and should be empty.
## Did you misspecify an argument?

## # A tibble: 46 x 12
##    X1      X2     X3     X4     X5     X6    X7    X8    X9    X10   X11   X12  
##    <chr>   <chr>  <chr>  <chr>  <chr>  <chr> <chr> <chr> <chr> <chr> <chr> <chr>
##  1 concen… full_… full_… assoc… assoc… asst… asst… lec_… lec_… prof… prof… divi…
##  2 Theate… 0      2      0      0      1     0     0     0     0     1     Arts…
##  3 Women,… 1      5      0      0      0     1     1     9     1     0     Soci…
##  4 Histor… 5      8      2      1      3     1     2     5     0     0     Soci…
##  5 Romanc… 6      9      1      1      1     2     2     11    0     0     Arts…
##  6 Music   6      8      0      0      1     0     5     4     0     2     Arts…
##  7 Africa… 19     15     1      0      1     0     0     0     1     0     Soci…
##  8 History 23     18     0      1      0     0     4     2     0     0     Soci…
##  9 Histor… 11     7      0      1      1     1     0     1     0     0     Arts…
## 10 Psycho… 11     7      1      2      4     2     1     0     0     0     Soci…
## # … with 36 more rows
…
gender_data

## Warning: `...` is not empty.
## 
## We detected these problematic arguments:
## * `needs_dots`
## 
## These dots only exist to allow future extensions and should be empty.
## Did you misspecify an argument?

## # A tibble: 45 x 12
##    concentration full_profs_m full_profs_f assoc_m assoc_f asst_m asst_f
##    <chr>                <dbl>        <dbl>   <dbl>   <dbl>  <dbl>  <dbl>
##  1 Theater, Dan…            0            2       0       0      1      0
##  2 Women, Gende…            1            5       0       0      0      1
##  3 History of S…            5            8       2       1      3      1
##  4 Romance Lang…            6            9       1       1      1      2
##  5 Music                    6            8       0       0      1      0
##  6 African & Af…           19           15       1       0      1      0
##  7 History                 23           18       0       1      0      0
##  8 History of A…           11            7       0       1      1      1
##  9 Psychology              11            7       1       2      4      2
## 10 Sociology               11            7       2       0      0      1
## # … with 35 more rows, and 5 more variables: lec_precep_adj_m <dbl>,
## #   lec_precep_adj_f <dbl>, prof_of_practice_m <dbl>, prof_of_practic_f <dbl>,
## #   division <chr>
…
gdp_percap <- gapminder %>% 
  arrange(pop) %>% 
  select(gdpPercap)

(gapminder_garbage <- bind_cols(life_exp, pop, gdp_percap))

## Warning: `...` is not empty.
## 
## We detected these problematic arguments:
## * `needs_dots`
## 
## These dots only exist to allow future extensions and should be empty.
## Did you misspecify an argument?

## # A tibble: 1,704 x 5
##    country      year lifeExp      pop gdpPercap
##    <fct>       <int>   <dbl>    <int>     <dbl>
##  1 Afghanistan  1952    28.8  8425333      880.
##  2 Afghanistan  1957    30.3  1282697      861.
##  3 Afghanistan  1962    32.0  9279525     2670.
##  4 Afghanistan  1967    34.0  4232095     1072.
##  5 Afghanistan  1972    36.1 17876956     1385.
##  6 Afghanistan  1977    38.4  8691212     2865.
##  7 Afghanistan  1982    39.9  6927772     1533.
##  8 Afghanistan  1987    40.8   120447     1738.
##  9 Afghanistan  1992    41.7 46886859     3021.
## 10 Afghanistan  1997    41.8  8730405     1890.
## # … with 1,694 more rows
…
## Joining, by = "country"

## Warning: `...` is not empty.
## 
## We detected these problematic arguments:
## * `needs_dots`
## 
## These dots only exist to allow future extensions and should be empty.
## Did you misspecify an argument?

## # A tibble: 142 x 4
## # Groups:   country [142]
##    country     continent iso_alpha iso_num
##    <chr>       <fct>     <chr>       <int>
##  1 Afghanistan Asia      AFG             4
##  2 Albania     Europe    ALB             8
##  3 Algeria     Africa    DZA            12
##  4 Angola      Africa    AGO            24
##  5 Argentina   Americas  ARG            32
##  6 Australia   Oceania   AUS            36
##  7 Austria     Europe    AUT            40
##  8 Bahrain     Asia      BHR            48
##  9 Bangladesh  Asia      BGD            50
## 10 Belgium     Europe    BEL            56
## # … with 132 more rows
…
## `summarise()` ungrouping output (override with `.groups` argument)

named_dests

## Warning: `...` is not empty.
## 
## We detected these problematic arguments:
## * `needs_dots`
## 
## These dots only exist to allow future extensions and should be empty.
## Did you misspecify an argument?

## # A tibble: 101 x 9
##    dest  num_flights airport_name          lat    lon   alt    tz dst   tzone   
##    <chr>       <int> <chr>               <dbl>  <dbl> <dbl> <dbl> <chr> <chr>   
##  1 ORD         17283 Chicago Ohare Intl   42.0  -87.9   668    -6 A     America…
##  2 ATL         17215 Hartsfield Jackson…  33.6  -84.4  1026    -5 A     America…
##  3 LAX         16174 Los Angeles Intl     33.9 -118.    126    -8 A     America…
##  4 BOS         15508 General Edward Law…  42.4  -71.0    19    -5 A     America…
##  5 MCO         14082 Orlando Intl         28.4  -81.3    96    -5 A     America…
##  6 CLT         14064 Charlotte Douglas …  35.2  -80.9   748    -5 A     America…
##  7 SFO         13331 San Francisco Intl   37.6 -122.     13    -8 A     America…
##  8 FLL         12055 Fort Lauderdale Ho…  26.1  -80.2     9    -5 A     America…
##  9 MIA         11728 Miami Intl           25.8  -80.3     8    -5 A     America…
## 10 DCA          9705 Ronald Reagan Wash…  38.9  -77.0    15    -5 A     America…
## # … with 91 more rows
…
