Chapter 7 Two Parameters | Gov 50: Data
…
Run the pennies_sample code below to extract our 50 sampled pennies.

pennies_sample <- tibble(ID = c(1:50), 
                         year = c(2002, 1986, 2017, 1988, 2008, 1983, 2008, 
                                  1996, 2004, 2000, 1994, 1995, 2015, 1978, 
                                  1974, 2015, 2016, 1996, 1983, 1971, 1981, 
                                  1976, 1998, 2017, 1979, 1979, 1993, 2006, 
                                  1988, 1978, 2013, 1976, 1979, 1985, 1985, 
                                  2015, 1962, 1999, 2015, 1990, 1992, 1997, 
                                  2018, 2015, 1997, 2017, 1982, 1988, 2006, 
                                  2017))
pennies_sample

## # A tibble: 50 x 2
##       ID  year
##    <int> <dbl>
##  1     1  2002
##  2     2  1986
##  3     3  2017
##  4     4  1988
##  5     5  2008
##  6     6  1983
##  7     7  2008
##  8     8  1996
##  9     9  2004
## 10    10  2000
## # … with 40 more rows
…
Before the computer age, scientists would use direct standard error formulas and complex Taylor Series to compute confidence intervals for an estimate. However, the bootstrap was developed as an alternative to compute standard errors and confidence intervals for any statistic in a much faster and easier way.

The intuition with bootstrapping is that we can model an inference about the population from resampling our sample data and then performing an inference about a sample from each resample. It will look something like this: resampled → sample → population.

The first thing we want to do when bootstrapping is creating our bootstrap samples.Since we are concerned with the year of pennies in 2019, let’s select year in our data set before we create our bootstraps. Let’s now perform the virtual analog for 1000 resamples. Using these results, we’ll be able to study the variability in the sample means from 1000 resamples of size 50. Let’s first add a times = 1000 argument to bootstraps()  to indicate we would like 1000 replicates. Remember that we must use the rsample library to use bootstraps.

set.seed(9)
virtual_resamples <- pennies_sample %>%
  select(year) %>%
  bootstraps(times = 1000)
virtual_resamples

## # Bootstrap sampling 
## # A tibble: 1,000 x 2
##    splits          id           
##    <list>          <chr>        
##  1 <split [50/19]> Bootstrap0001
##  2 <split [50/20]> Bootstrap0002
##  3 <split [50/16]> Bootstrap0003
##  4 <split [50/18]> Bootstrap0004
##  5 <split [50/18]> Bootstrap0005
##  6 <split [50/18]> Bootstrap0006
##  7 <split [50/17]> Bootstrap0007
##  8 <split [50/14]> Bootstrap0008
##  9 <split [50/19]> Bootstrap0009
## 10 <split [50/20]> Bootstrap0010
## # … with 990 more rows

So we have now created our bootstrap samples, which are stored in a tibble-like object, and each bootstrap sample is nested in the splits column. This means that each rsplit row is a different bootstrap sample and the id column is used to identify each bootstrap sample.

⊕Check out ?analysis in console to get an even more comprehensive review of what analysis() does
Now if you are interested to view a specific bootstrap sample, you can use the analysis() function from the rsample package, which basically allows you to view a specific bootstrap sample as a data frame. To do so, type analysis(virtual_resamples$splits[[n]]) %>% as_tibble() where n represents the nth row bootstrap sample. We will be looking at the first bootstrap sample in this case.

analysis(virtual_resamples$splits[[1]]) %>% as_tibble()

## # A tibble: 50 x 1
##     year
##    <dbl>
##  1  1983
##  2  2017
##  3  1983
##  4  2017
##  5  1995
##  6  1988
##  7  1978
##  8  2015
##  9  1962
## 10  1996
## # … with 40 more rows

As you can see, we were able to view the data in first bootstrap sample. Noticed how it has 50 rows, which is the same as our pennies_sample. Now that we know how to create bootstrap samples and view them, we can apply more code to our bootstraps to find our desired statistic, which is the average year of pennies in 2019.

⊕In this chapter, bootstrap samples and resamples mean the same thing
To compute our desired statistics, we now create the column boot by mutate(boot = map(splits, ~ analysis(.))). What we are doing here is that we are iterating an analysis over each bootstrap sample in a new sample. We want to iterate an analysis over each bootstrap sample, because analysis allows us to extract the mean year for each resample.

virtual_resamples <- pennies_sample %>%
  select(year) %>%
  bootstraps(times = 1000) %>%
  mutate(boot = map(splits, ~ analysis(.)))
virtual_resamples

## # Bootstrap sampling 
## # A tibble: 1,000 x 3
##    splits          id            boot             
##    <list>          <chr>         <list>           
##  1 <split [50/19]> Bootstrap0001 <tibble [50 × 1]>
##  2 <split [50/18]> Bootstrap0002 <tibble [50 × 1]>
##  3 <split [50/20]> Bootstrap0003 <tibble [50 × 1]>
##  4 <split [50/18]> Bootstrap0004 <tibble [50 × 1]>
##  5 <split [50/19]> Bootstrap0005 <tibble [50 × 1]>
##  6 <split [50/15]> Bootstrap0006 <tibble [50 × 1]>
##  7 <split [50/13]> Bootstrap0007 <tibble [50 × 1]>
##  8 <split [50/19]> Bootstrap0008 <tibble [50 × 1]>
##  9 <split [50/20]> Bootstrap0009 <tibble [50 × 1]>
## 10 <split [50/19]> Bootstrap0010 <tibble [50 × 1]>
## # … with 990 more rows

boot is now a list-column in the tibble, which we can use if we want to find a specific characteristic of each sample like the average year. Given that boot is a list column and we want to pull out the mean year as we are interested in this, we can create two more columns: years and year_mean, respectively.  To create ouryearscolumn, we runmutate(years = map(boot, ~ pull(., year)))after creating ourbootcolumn. What this does is that we are now pulling the year column of each bootstrap sample, which will evidently be nested in a list. Finally, we can create the columnyear_meanto extract the mean of each bootstrap sample by now runningmutate(year_mean = map_dbl(years, ~ mean(.))). This command line essentially calculates the mean year from theyears` list nested column.

set.seed(9)
virtual_resamples <- pennies_sample %>%
  select(year) %>%
  bootstraps(times = 1000) %>%
  mutate(boot = map(splits, ~ analysis(.))) %>%
  mutate(years = map(boot, ~ pull(., year))) %>% 
  mutate(year_mean = map_dbl(years, ~ mean(.)))
virtual_resamples

## # Bootstrap sampling 
## # A tibble: 1,000 x 5
##    splits          id            boot              years      year_mean
##    <list>          <chr>         <list>            <list>         <dbl>
##  1 <split [50/19]> Bootstrap0001 <tibble [50 × 1]> <dbl [50]>     1992.
##  2 <split [50/20]> Bootstrap0002 <tibble [50 × 1]> <dbl [50]>     1999.
##  3 <split [50/16]> Bootstrap0003 <tibble [50 × 1]> <dbl [50]>     1992.
##  4 <split [50/18]> Bootstrap0004 <tibble [50 × 1]> <dbl [50]>     1993.
##  5 <split [50/18]> Bootstrap0005 <tibble [50 × 1]> <dbl [50]>     1995.
##  6 <split [50/18]> Bootstrap0006 <tibble [50 × 1]> <dbl [50]>     1998.
##  7 <split [50/17]> Bootstrap0007 <tibble [50 × 1]> <dbl [50]>     1993.
##  8 <split [50/14]> Bootstrap0008 <tibble [50 × 1]> <dbl [50]>     1995.
##  9 <split [50/19]> Bootstrap0009 <tibble [50 × 1]> <dbl [50]>     1993.
## 10 <split [50/20]> Bootstrap0010 <tibble [50 × 1]> <dbl [50]>     2000.
## # … with 990 more rows
…
heights_sample <- sample_n(ch7_male, 40, replace = FALSE)

Great! So now we have our sample of 40 male heights in 2009. Now you might wonder how this section of this chapter is different from the section with pennies_samples. Well, there are two key differences. First, we know the truth in this case, so we can examine whether or not the bootstrap works. (That is, we pull a sample of 40 and see if the bootstrap confidence interval from that 40 includes the true 90th percentile of the 2,370) Second, note that only the bootstrap will allow us to estimate statistics other than the mean. We can’t use the lm() trick we learned about for pennies as we will find the confidence interval for the 90th percentile, which is a statistic that isn’t the mean.

set.seed(9)
virtual_heights <- heights_sample %>%
  select(height) %>%
  bootstraps(times = 1000) %>%
  mutate(boot = map(splits, ~ analysis(.))) %>%
  mutate(heights = map(boot, ~ pull(., height))) %>% 
  mutate(height_90th = map_dbl(heights, ~ quantile(., probs = .90))) 
virtual_heights

## # Bootstrap sampling 
## # A tibble: 1,000 x 5
##    splits          id            boot              heights    height_90th
##    <list>          <chr>         <list>            <list>           <dbl>
##  1 <split [40/14]> Bootstrap0001 <tibble [40 × 1]> <dbl [40]>        182.
##  2 <split [40/16]> Bootstrap0002 <tibble [40 × 1]> <dbl [40]>        182.
##  3 <split [40/13]> Bootstrap0003 <tibble [40 × 1]> <dbl [40]>        183.
##  4 <split [40/14]> Bootstrap0004 <tibble [40 × 1]> <dbl [40]>        182.
##  5 <split [40/15]> Bootstrap0005 <tibble [40 × 1]> <dbl [40]>        182.
##  6 <split [40/16]> Bootstrap0006 <tibble [40 × 1]> <dbl [40]>        182.
##  7 <split [40/15]> Bootstrap0007 <tibble [40 × 1]> <dbl [40]>        180.
##  8 <split [40/12]> Bootstrap0008 <tibble [40 × 1]> <dbl [40]>        183.
##  9 <split [40/14]> Bootstrap0009 <tibble [40 × 1]> <dbl [40]>        182.
## 10 <split [40/16]> Bootstrap0010 <tibble [40 × 1]> <dbl [40]>        182.
## # … with 990 more rows
…
Let’s not create a tibble to show whether the true value is within each confidence interval generated.

set.seed(9)
sims <- 100

bootstrapchecks <- tibble(ID = 1:sims) %>%
  mutate(heights_samples = map(ID, ~ sample_n(ch7_male, 40, replace = FALSE))) %>%
  mutate(ci = map(heights_samples, ~ do_the_bootstrapci(.))) %>%
  mutate(within_ci = map_lgl(ci, ~ ifelse(between(184.3, ci[[1]][1], ci[[1]][2]), TRUE, FALSE)))
bootstrapchecks

## # A tibble: 100 x 4
##       ID heights_samples   ci        within_ci
##    <int> <list>            <list>    <lgl>    
##  1     1 <tibble [40 × 1]> <dbl [2]> TRUE     
##  2     2 <tibble [40 × 1]> <dbl [2]> TRUE     
##  3     3 <tibble [40 × 1]> <dbl [2]> TRUE     
##  4     4 <tibble [40 × 1]> <dbl [2]> TRUE     
##  5     5 <tibble [40 × 1]> <dbl [2]> TRUE     
##  6     6 <tibble [40 × 1]> <dbl [2]> TRUE     
##  7     7 <tibble [40 × 1]> <dbl [2]> TRUE     
##  8     8 <tibble [40 × 1]> <dbl [2]> TRUE     
##  9     9 <tibble [40 × 1]> <dbl [2]> TRUE     
## 10    10 <tibble [40 × 1]> <dbl [2]> TRUE     
## # … with 90 more rows
…
