Chapter 1 Visualization | Preceptor’s Primer for Bayesian Data Science
…
library(PPBDS.data)
library(dplyr)

1.4.1 trains data frame

⊕See “Causal effect of intergroup contact on attitudes,” by Ryan D. Enos, Proceedings of the National Academy of Sciences, Mar 2014, 111 (10) for background and details on the trains dataset.

We’ll begin by exploring the trains data frame and get an idea of its structure. This dataset includes data for attitudes toward immigration-related policies, both before and after an experiment which randomly exposed a treated group to Spanish-speakers on a Boston commuter train platform. Individuals with a treatment value of “Treated” were exposed to two Spanish-speakers on their regular commute. “Control” individuals were not.

Run the following code in your console, either by typing it or by cutting-and-pasting it. It displays the contents of the trains data frame in your console. Note that depending on the size of your monitor, the output may vary slightly.

trains

## # A tibble: 115 x 8
##    gender liberal party        age income att_start treatment att_end
##    <chr>  <lgl>   <chr>      <dbl>  <dbl>     <dbl> <fct>       <dbl>
##  1 Female FALSE   Democrat      31 135000        11 Treated        11
##  2 Female FALSE   Republican    34 105000         9 Treated        10
##  3 Male   TRUE    Democrat      63 135000         3 Treated         5
##  4 Male   FALSE   Democrat      45 300000        11 Treated        11
##  5 Male   TRUE    Democrat      55 135000         8 Control         5
##  6 Female FALSE   Democrat      37  87500        13 Treated        13
##  7 Female FALSE   Republican    53  87500        13 Control        13
##  8 Male   FALSE   Democrat      36 135000        10 Treated        11
##  9 Female FALSE   Democrat      54 105000        12 Control        12
## 10 Male   FALSE   Republican    42 135000         9 Treated        10
## # … with 105 more rows
…
## [1] 533 542 544 554

1.13.5 arrange and sort rows

One of the most commonly performed data wrangling tasks is to sort a data frame’s rows in the alphanumeric order of one of the variables. Unlike filter() or select(), arrange() does not remove any rows or columns from the data frame. Instead, the dplyr package’s arrange() function  allows us to sort/reorder a data frame’s rows according to the values of the specified variable.

Suppose we are interested in determining the flight that covers that most distance from all domestic flights departing from New York City in 2013:

First, let’s select() some pertinent variables to make the data more easy to read.

flights_dist <- flights %>% 
  select(origin, dest, air_time, distance)
flights_dist

## # A tibble: 336,776 x 4
##    origin dest  air_time distance
##    <chr>  <chr>    <dbl>    <dbl>
##  1 EWR    IAH        227     1400
##  2 LGA    IAH        227     1416
##  3 JFK    MIA        160     1089
##  4 JFK    BQN        183     1576
##  5 LGA    ATL        116      762
##  6 EWR    ORD        150      719
##  7 EWR    FLL        158     1065
##  8 LGA    IAD         53      229
##  9 JFK    MCO        140      944
## 10 LGA    ORD        138      733
## # … with 336,766 more rows

The order of this data appears is maintained from the original flights data set. Say instead we would like to see the same data, but sorted for the distance of each flight (from the farthest to the shortest distance).

flights_dist %>% 
  arrange(distance)

## # A tibble: 336,776 x 4
##    origin dest  air_time distance
##    <chr>  <chr>    <dbl>    <dbl>
##  1 EWR    LGA         NA       17
##  2 EWR    PHL         30       80
##  3 EWR    PHL         30       80
##  4 EWR    PHL         28       80
##  5 EWR    PHL         32       80
##  6 EWR    PHL         29       80
##  7 EWR    PHL         22       80
##  8 EWR    PHL         25       80
##  9 EWR    PHL         30       80
## 10 EWR    PHL         27       80
## # … with 336,766 more rows

This is, however, the opposite of what we want. The rows are sorted with the flights covering the least distance displayed first. This is because arrange() always returns rows sorted in ascending order by default. To switch the ordering to be in “descending” order instead, we use the desc()  function like so:

flights_dist %>% 
  arrange(desc(distance))

## # A tibble: 336,776 x 4
##    origin dest  air_time distance
##    <chr>  <chr>    <dbl>    <dbl>
##  1 JFK    HNL        659     4983
##  2 JFK    HNL        638     4983
##  3 JFK    HNL        616     4983
##  4 JFK    HNL        639     4983
##  5 JFK    HNL        635     4983
##  6 JFK    HNL        611     4983
##  7 JFK    HNL        612     4983
##  8 JFK    HNL        645     4983
##  9 JFK    HNL        640     4983
## 10 JFK    HNL        633     4983
## # … with 336,766 more rows

Let’s try this one more time with a character variable. What happens when we try to sort by the destination (dest) variable?

flights_dist %>%
  arrange(dest)

## # A tibble: 336,776 x 4
##    origin dest  air_time distance
##    <chr>  <chr>    <dbl>    <dbl>
##  1 JFK    ABQ        230     1826
##  2 JFK    ABQ        238     1826
##  3 JFK    ABQ        251     1826
##  4 JFK    ABQ        257     1826
##  5 JFK    ABQ        242     1826
##  6 JFK    ABQ        240     1826
##  7 JFK    ABQ        246     1826
##  8 JFK    ABQ        233     1826
##  9 JFK    ABQ        236     1826
## 10 JFK    ABQ        245     1826
## # … with 336,766 more rows
…
This code is identical to the previous code that created summary_temp, but with an extra group_by(month) added before the summarize(). Grouping the weather dataset by month and then applying the summarize() functions yields a data frame that displays the mean and standard deviation temperature split by the 12 months of the year.

It is important to note that the  group_by() function doesn’t change data frames by itself. Rather it changes the meta-data, or data about the data, specifically the grouping structure. It is only after we apply the summarize() function that the data frame changes.

Run this code (do not forget to load its package nycflights13 in your console if you
have not already):

flights

## # A tibble: 336,776 x 19
##     year month   day dep_time sched_dep_time dep_delay arr_time sched_arr_time
##    <int> <int> <int>    <int>          <int>     <dbl>    <int>          <int>
##  1  2013     1     1      517            515         2      830            819
##  2  2013     1     1      533            529         4      850            830
##  3  2013     1     1      542            540         2      923            850
##  4  2013     1     1      544            545        -1     1004           1022
##  5  2013     1     1      554            600        -6      812            837
##  6  2013     1     1      554            558        -4      740            728
##  7  2013     1     1      555            600        -5      913            854
##  8  2013     1     1      557            600        -3      709            723
##  9  2013     1     1      557            600        -3      838            846
## 10  2013     1     1      558            600        -2      753            745
## # … with 336,766 more rows, and 11 more variables: arr_delay <dbl>,
## #   carrier <chr>, flight <int>, tailnum <chr>, origin <chr>, dest <chr>,
## #   air_time <dbl>, distance <dbl>, hour <dbl>, minute <dbl>, time_hour <dttm>

Observe that the first line of the output reads # A tibble: 336,776 x 19. This is an example of meta-data, in this case the number of observations/rows and variables/columns in flights. The actual data itself are the subsequent table of values. Now let’s pipe the flights data frame into group_by(origin):

flights %>% 
  group_by(origin)

## # A tibble: 336,776 x 19
## # Groups:   origin [3]
##     year month   day dep_time sched_dep_time dep_delay arr_time sched_arr_time
##    <int> <int> <int>    <int>          <int>     <dbl>    <int>          <int>
##  1  2013     1     1      517            515         2      830            819
##  2  2013     1     1      533            529         4      850            830
##  3  2013     1     1      542            540         2      923            850
##  4  2013     1     1      544            545        -1     1004           1022
##  5  2013     1     1      554            600        -6      812            837
##  6  2013     1     1      554            558        -4      740            728
##  7  2013     1     1      555            600        -5      913            854
##  8  2013     1     1      557            600        -3      709            723
##  9  2013     1     1      557            600        -3      838            846
## 10  2013     1     1      558            600        -2      753            745
## # … with 336,766 more rows, and 11 more variables: arr_delay <dbl>,
## #   carrier <chr>, flight <int>, tailnum <chr>, origin <chr>, dest <chr>,
## #   air_time <dbl>, distance <dbl>, hour <dbl>, minute <dbl>, time_hour <dttm>
…
We see that Newark ("EWR") had the most flights departing in 2013 followed by "JFK" and lastly by LaGuardia ("LGA"). Note there is a subtle but important difference between sum() and n(); while sum() returns the sum of a numerical variable, n() returns a count of the number of rows/observations.

If you would like to remove this grouping structure meta-data, we can pipe the resulting data frame into the  ungroup() function:

flights %>% 
  group_by(origin) %>% 
  ungroup()

## # A tibble: 336,776 x 19
##     year month   day dep_time sched_dep_time dep_delay arr_time sched_arr_time
##    <int> <int> <int>    <int>          <int>     <dbl>    <int>          <int>
##  1  2013     1     1      517            515         2      830            819
##  2  2013     1     1      533            529         4      850            830
##  3  2013     1     1      542            540         2      923            850
##  4  2013     1     1      544            545        -1     1004           1022
##  5  2013     1     1      554            600        -6      812            837
##  6  2013     1     1      554            558        -4      740            728
##  7  2013     1     1      555            600        -5      913            854
##  8  2013     1     1      557            600        -3      709            723
##  9  2013     1     1      557            600        -3      838            846
## 10  2013     1     1      558            600        -2      753            745
## # … with 336,766 more rows, and 11 more variables: arr_delay <dbl>,
## #   carrier <chr>, flight <int>, tailnum <chr>, origin <chr>, dest <chr>,
## #   air_time <dbl>, distance <dbl>, hour <dbl>, minute <dbl>, time_hour <dttm>
Observe how the # Groups: origin [3] meta-data is no longer present.

1.13.7 Grouping by more than one variable

You are not limited to grouping by one variable. Say you want to know the number of flights leaving each of the three New York City airports for each month. We can also group by a second variable month using group_by(origin, month):

by_origin_monthly <- flights %>% 
  group_by(origin, month) %>% 
  summarize(count = n())

## `summarise()` regrouping output by 'origin' (override with `.groups` argument)

by_origin_monthly

## # A tibble: 36 x 3
## # Groups:   origin [3]
##    origin month count
##    <chr>  <int> <int>
##  1 EWR        1  9893
##  2 EWR        2  9107
##  3 EWR        3 10420
##  4 EWR        4 10531
##  5 EWR        5 10592
##  6 EWR        6 10175
##  7 EWR        7 10475
##  8 EWR        8 10359
##  9 EWR        9  9550
## 10 EWR       10 10104
## # … with 26 more rows
…
Values for each line are separated with commas. In other words, the values of different variables are separated by commas in each row.

The first line is often, but not always, a header row indicating the names of the columns/variables.

Second, an Excel .xlsx spreadsheet file. This format is based on Microsoft’s proprietary Excel software. As opposed to bare-bones .csv files, .xlsx Excel files contain a lot of meta-data (data about data). Recall we saw a previous example of meta-data in Section ?? when adding “group structure” meta-data to a data frame by using the group_by() verb. Some examples of Excel spreadsheet meta-data include the use of bold and italic fonts, colored cells, different column widths, and formula macros.

Third, a Google Sheets file, which is a “cloud” or online-based way to work with a spreadsheet. Google Sheets allows you to download your data in both comma separated values .csv and Excel .xlsx formats. To import Google Sheets data in R use the googlesheets4 package.

Let’s import a Comma Separated Values .csv file that exists on the internet. The .csv file dem_score.csv contains ratings of the level of democracy in different countries spanning 1952 to 1992 and is accessible at https://moderndive.com/data/dem_score.csv. Let’s use the read_csv() function from the readr  (Wickham, Hester, and Francois ⊕2018Wickham, Hadley, Jim Hester, and Romain Francois. 2018. Readr: Read Rectangular Text Data. https://CRAN.R-project.org/package=readr.) package to read it off the web, import it into R, and save it in a data frame called dem_score.

library(readr)
dem_score <- read_csv("https://moderndive.com/data/dem_score.csv")
dem_score

## # A tibble: 96 x 10
##    country    `1952` `1957` `1962` `1967` `1972` `1977` `1982` `1987` `1992`
##    <chr>       <dbl>  <dbl>  <dbl>  <dbl>  <dbl>  <dbl>  <dbl>  <dbl>  <dbl>
##  1 Albania        -9     -9     -9     -9     -9     -9     -9     -9      5
##  2 Argentina      -9     -1     -1     -9     -9     -9     -8      8      7
##  3 Armenia        -9     -7     -7     -7     -7     -7     -7     -7      7
##  4 Australia      10     10     10     10     10     10     10     10     10
##  5 Austria        10     10     10     10     10     10     10     10     10
##  6 Azerbaijan     -9     -7     -7     -7     -7     -7     -7     -7      1
##  7 Belarus        -9     -7     -7     -7     -7     -7     -7     -7      7
##  8 Belgium        10     10     10     10     10     10     10     10     10
##  9 Bhutan        -10    -10    -10    -10    -10    -10    -10    -10    -10
## 10 Bolivia        -4     -3     -3     -4     -7     -7      8      9      9
## # … with 86 more rows
…
