Chapter 2 Wrangling | Gov 50: Data
…
Now, call gender_data.

gender_data

## # A tibble: 46 x 12
##    X1      X2     X3     X4     X5     X6    X7    X8    X9    X10   X11   X12  
##    <chr>   <chr>  <chr>  <chr>  <chr>  <chr> <chr> <chr> <chr> <chr> <chr> <chr>
##  1 concen… full_… full_… assoc… assoc… asst… asst… lec_… lec_… prof… prof… divi…
##  2 Theate… 0      2      0      0      1     0     0     0     0     1     Arts…
##  3 Women,… 1      5      0      0      0     1     1     9     1     0     Soci…
##  4 Histor… 5      8      2      1      3     1     2     5     0     0     Soci…
##  5 Romanc… 6      9      1      1      1     2     2     11    0     0     Arts…
##  6 Music   6      8      0      0      1     0     5     4     0     2     Arts…
##  7 Africa… 19     15     1      0      1     0     0     0     1     0     Soci…
##  8 History 23     18     0      1      0     0     4     2     0     0     Soci…
##  9 Histor… 11     7      0      1      1     1     0     1     0     0     Arts…
## 10 Psycho… 11     7      1      2      4     2     1     0     0     0     Soci…
## # … with 36 more rows
…
gender_data

## # A tibble: 45 x 12
##    concentration full_profs_m full_profs_f assoc_m assoc_f asst_m asst_f
##    <chr>                <dbl>        <dbl>   <dbl>   <dbl>  <dbl>  <dbl>
##  1 Theater, Dan…            0            2       0       0      1      0
##  2 Women, Gende…            1            5       0       0      0      1
##  3 History of S…            5            8       2       1      3      1
##  4 Romance Lang…            6            9       1       1      1      2
##  5 Music                    6            8       0       0      1      0
##  6 African & Af…           19           15       1       0      1      0
##  7 History                 23           18       0       1      0      0
##  8 History of A…           11            7       0       1      1      1
##  9 Psychology              11            7       1       2      4      2
## 10 Sociology               11            7       2       0      0      1
## # … with 35 more rows, and 5 more variables: lec_precep_adj_m <dbl>,
## #   lec_precep_adj_f <dbl>, prof_of_practice_m <dbl>, prof_of_practic_f <dbl>,
## #   division <chr>
…
You can also force the creation of a date-time from a date by supplying a timezone:

ymd(20170131, tz = "UTC")

## [1] "2017-01-31 UTC"

2.5.2 From individual components

Instead of a single string, sometimes you’ll have the individual components of the date-time spread across multiple columns. This is what we have in the flights data:

flights %>% 
  select(year, month, day, hour, minute)

## # A tibble: 336,776 x 5
##     year month   day  hour minute
##    <int> <int> <int> <dbl>  <dbl>
##  1  2013     1     1     5     15
##  2  2013     1     1     5     29
##  3  2013     1     1     5     40
##  4  2013     1     1     5     45
##  5  2013     1     1     6      0
##  6  2013     1     1     5     58
##  7  2013     1     1     6      0
##  8  2013     1     1     6      0
##  9  2013     1     1     6      0
## 10  2013     1     1     6      0
## # … with 336,766 more rows

To create a date/time from this sort of input, use make_date() for dates, or make_datetime() for date-times:

flights %>% 
  select(year, month, day, hour, minute) %>% 
  mutate(departure = make_datetime(year, month, day, hour, minute))

## # A tibble: 336,776 x 6
##     year month   day  hour minute departure          
##    <int> <int> <int> <dbl>  <dbl> <dttm>             
##  1  2013     1     1     5     15 2013-01-01 05:15:00
##  2  2013     1     1     5     29 2013-01-01 05:29:00
##  3  2013     1     1     5     40 2013-01-01 05:40:00
##  4  2013     1     1     5     45 2013-01-01 05:45:00
##  5  2013     1     1     6      0 2013-01-01 06:00:00
##  6  2013     1     1     5     58 2013-01-01 05:58:00
##  7  2013     1     1     6      0 2013-01-01 06:00:00
##  8  2013     1     1     6      0 2013-01-01 06:00:00
##  9  2013     1     1     6      0 2013-01-01 06:00:00
## 10  2013     1     1     6      0 2013-01-01 06:00:00
## # … with 336,766 more rows
…
make_datetime_100 <- function(year, month, day, time) {
  make_datetime(year, month, day, time %/% 100, time %% 100)
}
flights_dt <- flights %>% 
  filter(!is.na(dep_time), !is.na(arr_time)) %>% 
  mutate(
    dep_time = make_datetime_100(year, month, day, dep_time),
    arr_time = make_datetime_100(year, month, day, arr_time),
    sched_dep_time = make_datetime_100(year, month, day, sched_dep_time),
    sched_arr_time = make_datetime_100(year, month, day, sched_arr_time)
  ) %>% 
  select(origin, dest, ends_with("delay"), ends_with("time"))
flights_dt

## # A tibble: 328,063 x 9
##    origin dest  dep_delay arr_delay dep_time            sched_dep_time     
##    <chr>  <chr>     <dbl>     <dbl> <dttm>              <dttm>             
##  1 EWR    IAH           2        11 2013-01-01 05:17:00 2013-01-01 05:15:00
##  2 LGA    IAH           4        20 2013-01-01 05:33:00 2013-01-01 05:29:00
##  3 JFK    MIA           2        33 2013-01-01 05:42:00 2013-01-01 05:40:00
##  4 JFK    BQN          -1       -18 2013-01-01 05:44:00 2013-01-01 05:45:00
##  5 LGA    ATL          -6       -25 2013-01-01 05:54:00 2013-01-01 06:00:00
##  6 EWR    ORD          -4        12 2013-01-01 05:54:00 2013-01-01 05:58:00
##  7 EWR    FLL          -5        19 2013-01-01 05:55:00 2013-01-01 06:00:00
##  8 LGA    IAD          -3       -14 2013-01-01 05:57:00 2013-01-01 06:00:00
##  9 JFK    MCO          -3        -8 2013-01-01 05:57:00 2013-01-01 06:00:00
## 10 LGA    ORD          -2         8 2013-01-01 05:58:00 2013-01-01 06:00:00
## # … with 328,053 more rows, and 3 more variables: arr_time <dttm>,
## #   sched_arr_time <dttm>, air_time <dbl>
…
life_exp <- gapminder %>%
  select(country, year, lifeExp)

pop <- gapminder %>%
  arrange(year) %>% 
  select(pop)
  
gdp_percap <- gapminder %>% 
  arrange(pop) %>% 
  select(gdpPercap)

(gapminder_garbage <- bind_cols(life_exp, pop, gdp_percap))

## # A tibble: 1,704 x 5
##    country      year lifeExp      pop gdpPercap
##    <fct>       <int>   <dbl>    <int>     <dbl>
##  1 Afghanistan  1952    28.8  8425333      880.
##  2 Afghanistan  1957    30.3  1282697      861.
##  3 Afghanistan  1962    32.0  9279525     2670.
##  4 Afghanistan  1967    34.0  4232095     1072.
##  5 Afghanistan  1972    36.1 17876956     1385.
##  6 Afghanistan  1977    38.4  8691212     2865.
##  7 Afghanistan  1982    39.9  6927772     1533.
##  8 Afghanistan  1987    40.8   120447     1738.
##  9 Afghanistan  1992    41.7 46886859     3021.
## 10 Afghanistan  1997    41.8  8730405     1890.
## # … with 1,694 more rows
…
Bottom line: Row bind when you need to, but inspect the results re: coercion. Column bind only if you must and be extremely paranoid.

2.6.3 Joins in dplyr

The most recent release of gapminder includes a new data frame, country_codes, with country names and ISO codes. Therefore you can also use it to practice joins.

gapminder %>% 
  select(country, continent) %>% 
  group_by(country) %>% 
  slice(1) %>% 
  left_join(country_codes)

## Joining, by = "country"

## # A tibble: 142 x 4
## # Groups:   country [142]
##    country     continent iso_alpha iso_num
##    <chr>       <fct>     <chr>       <int>
##  1 Afghanistan Asia      AFG             4
##  2 Albania     Europe    ALB             8
##  3 Algeria     Africa    DZA            12
##  4 Angola      Africa    AGO            24
##  5 Argentina   Americas  ARG            32
##  6 Australia   Oceania   AUS            36
##  7 Austria     Europe    AUT            40
##  8 Bahrain     Asia      BHR            48
##  9 Bangladesh  Asia      BGD            50
## 10 Belgium     Europe    BEL            56
## # … with 132 more rows
…
Let’s construct the chain of pipe operators %>% that computes the number of flights from NYC to each destination, but also includes information about each destination airport:

named_dests <- flights %>%
  group_by(dest) %>%
  summarize(num_flights = n()) %>%
  arrange(desc(num_flights)) %>%
  inner_join(airports, by = c("dest" = "faa")) %>%
  rename(airport_name = name)

## `summarise()` ungrouping output (override with `.groups` argument)

named_dests

## # A tibble: 101 x 9
##    dest  num_flights airport_name          lat    lon   alt    tz dst   tzone   
##    <chr>       <int> <chr>               <dbl>  <dbl> <dbl> <dbl> <chr> <chr>   
##  1 ORD         17283 Chicago Ohare Intl   42.0  -87.9   668    -6 A     America…
##  2 ATL         17215 Hartsfield Jackson…  33.6  -84.4  1026    -5 A     America…
##  3 LAX         16174 Los Angeles Intl     33.9 -118.    126    -8 A     America…
##  4 BOS         15508 General Edward Law…  42.4  -71.0    19    -5 A     America…
##  5 MCO         14082 Orlando Intl         28.4  -81.3    96    -5 A     America…
##  6 CLT         14064 Charlotte Douglas …  35.2  -80.9   748    -5 A     America…
##  7 SFO         13331 San Francisco Intl   37.6 -122.     13    -8 A     America…
##  8 FLL         12055 Fort Lauderdale Ho…  26.1  -80.2     9    -5 A     America…
##  9 MIA         11728 Miami Intl           25.8  -80.3     8    -5 A     America…
## 10 DCA          9705 Ronald Reagan Wash…  38.9  -77.0    15    -5 A     America…
## # … with 91 more rows
…
## # A tibble: 1 x 1
##    mean
##   <dbl>
## 1 -5.66

We can also remove the missing values from the dataset instead of merely filtering them out using the drop_na() function. The flights dataset contains 336,776 rows. And when

flights %>%
  mutate(gain = arr_delay - dep_delay) %>%
  filter(is.na(gain))

## # A tibble: 9,430 x 22
##     year month   day dep_time sched_dep_time dep_delay arr_time sched_arr_time
##    <int> <int> <int>    <int>          <int>     <dbl>    <int>          <int>
##  1  2013     1     1     1525           1530        -5     1934           1805
##  2  2013     1     1     1528           1459        29     2002           1647
##  3  2013     1     1     1740           1745        -5     2158           2020
##  4  2013     1     1     1807           1738        29     2251           2103
##  5  2013     1     1     1939           1840        59       29           2151
##  6  2013     1     1     1952           1930        22     2358           2207
##  7  2013     1     1     2016           1930        46       NA           2220
##  8  2013     1     1       NA           1630        NA       NA           1815
##  9  2013     1     1       NA           1935        NA       NA           2240
## 10  2013     1     1       NA           1500        NA       NA           1825
## # … with 9,420 more rows, and 14 more variables: arr_delay <dbl>,
## #   carrier <chr>, flight <int>, tailnum <chr>, origin <chr>, dest <chr>,
## #   air_time <dbl>, distance <dbl>, hour <dbl>, minute <dbl>, time_hour <dttm>,
## #   gain <dbl>, hours <dbl>, gain_per_hour <dbl>

As we see here, there are 9,430 rows of the flights dataset that contain missing values in the gain column. So using drop_na(), we get:

flights %>%
  mutate(gain = arr_delay - dep_delay) %>%
  drop_na(gain)

## # A tibble: 327,346 x 22
##     year month   day dep_time sched_dep_time dep_delay arr_time sched_arr_time
##    <int> <int> <int>    <int>          <int>     <dbl>    <int>          <int>
##  1  2013     1     1      517            515         2      830            819
##  2  2013     1     1      533            529         4      850            830
##  3  2013     1     1      542            540         2      923            850
##  4  2013     1     1      544            545        -1     1004           1022
##  5  2013     1     1      554            600        -6      812            837
##  6  2013     1     1      554            558        -4      740            728
##  7  2013     1     1      555            600        -5      913            854
##  8  2013     1     1      557            600        -3      709            723
##  9  2013     1     1      557            600        -3      838            846
## 10  2013     1     1      558            600        -2      753            745
## # … with 327,336 more rows, and 14 more variables: arr_delay <dbl>,
## #   carrier <chr>, flight <int>, tailnum <chr>, origin <chr>, dest <chr>,
## #   air_time <dbl>, distance <dbl>, hour <dbl>, minute <dbl>, time_hour <dttm>,
## #   gain <dbl>, hours <dbl>, gain_per_hour <dbl>

Note that 336,776 - 9,430 = 327346, so drop_na() seems to check out. Be careful with drop_na(), however, because you may be removing rows with valuable data in other columns.

Suppose you did not want to remove the missing values but instead replace them with a number. We can use replace_na() as a helper function to mutate(). Here we replace each missing value in the gain column with a value of 0.

flights %>%
  mutate(gain = arr_delay - dep_delay) %>%
  mutate(gain = replace_na(data = gain, replace = 0))

## # A tibble: 336,776 x 22
##     year month   day dep_time sched_dep_time dep_delay arr_time sched_arr_time
##    <int> <int> <int>    <int>          <int>     <dbl>    <int>          <int>
##  1  2013     1     1      517            515         2      830            819
##  2  2013     1     1      533            529         4      850            830
##  3  2013     1     1      542            540         2      923            850
##  4  2013     1     1      544            545        -1     1004           1022
##  5  2013     1     1      554            600        -6      812            837
##  6  2013     1     1      554            558        -4      740            728
##  7  2013     1     1      555            600        -5      913            854
##  8  2013     1     1      557            600        -3      709            723
##  9  2013     1     1      557            600        -3      838            846
## 10  2013     1     1      558            600        -2      753            745
## # … with 336,766 more rows, and 14 more variables: arr_delay <dbl>,
## #   carrier <chr>, flight <int>, tailnum <chr>, origin <chr>, dest <chr>,
## #   air_time <dbl>, distance <dbl>, hour <dbl>, minute <dbl>, time_hour <dttm>,
## #   gain <dbl>, hours <dbl>, gain_per_hour <dbl>
…
As you can see the column names are in all lowercase, and each space in between words is represented by an underscore character. This is the default result of clean_names(), so running clean_names(flights) will have no effect.

Suppose, instead, we wanted to change the column names to camel case, where word boundaries are demarcated by an upper case letter.

flights %>% clean_names("small_camel")

## # A tibble: 336,776 x 22
##     year month   day depTime schedDepTime depDelay arrTime schedArrTime arrDelay
##    <int> <int> <int>   <int>        <int>    <dbl>   <int>        <int>    <dbl>
##  1  2013     1     1     517          515        2     830          819       11
##  2  2013     1     1     533          529        4     850          830       20
##  3  2013     1     1     542          540        2     923          850       33
##  4  2013     1     1     544          545       -1    1004         1022      -18
##  5  2013     1     1     554          600       -6     812          837      -25
##  6  2013     1     1     554          558       -4     740          728       12
##  7  2013     1     1     555          600       -5     913          854       19
##  8  2013     1     1     557          600       -3     709          723      -14
##  9  2013     1     1     557          600       -3     838          846       -8
## 10  2013     1     1     558          600       -2     753          745        8
## # … with 336,766 more rows, and 13 more variables: carrier <chr>, flight <int>,
## #   tailnum <chr>, origin <chr>, dest <chr>, airTime <dbl>, distance <dbl>,
## #   hour <dbl>, minute <dbl>, timeHour <dttm>, gain <dbl>, hours <dbl>,
## #   gainPerHour <dbl>
…
